EESchema Schematic File Version 4
EELAYER 30 0
EELAYER END
$Descr A4 11693 8268
encoding utf-8
Sheet 1 1
Title "AirQualityPCB"
Date "2021-05-09"
Rev "2"
Comp "CNEA"
Comment1 "Autor: F. Alcalde Bessia"
Comment2 "Editor: Damian Leonel Corzi"
Comment3 ""
Comment4 ""
$EndDescr
$Comp
L Lolin-NodeMCU-ESP8266:NodeMCU_1.0_(ESP-12E) U1
U 1 1 6098983B
P 5500 3750
F 0 "U1" H 5500 4837 60  0000 C CNN
F 1 "NodeMCU_1.0_(ESP-12E)" H 5500 4731 60  0000 C CNN
F 2 "Lolin-NodeMCU-ESP8266:NodeMCU1.0(12-E)" H 4900 2900 60  0001 C CNN
F 3 "" H 4900 2900 60  0000 C CNN
	1    5500 3750
	1    0    0    -1  
$EndComp
$Comp
L Sensor:DHT11 U3
U 1 1 6098BB11
P 9150 1800
F 0 "U3" H 8906 1846 50  0000 R CNN
F 1 "DHT22" H 8906 1755 50  0000 R CNN
F 2 "Sensor:Aosong_DHT11_5.5x12.0_P2.54mm" H 9150 1400 50  0001 C CNN
F 3 "http://akizukidenshi.com/download/ds/aosong/DHT11.pdf" H 9300 2050 50  0001 C CNN
	1    9150 1800
	-1   0    0    -1  
$EndComp
$Comp
L Connector_Generic:Conn_01x15 J7
U 1 1 6098D885
P 7400 3750
F 0 "J7" H 7480 3792 50  0000 L CNN
F 1 "Conn_01x15" H 7480 3701 50  0000 L CNN
F 2 "Connector_PinHeader_2.54mm:PinHeader_1x15_P2.54mm_Vertical" H 7400 3750 50  0001 C CNN
F 3 "~" H 7400 3750 50  0001 C CNN
	1    7400 3750
	1    0    0    -1  
$EndComp
$Comp
L Connector_Generic:Conn_01x15 J3
U 1 1 60992404
P 3600 3750
F 0 "J3" H 3518 4667 50  0000 C CNN
F 1 "Conn_01x15" H 3518 4576 50  0000 C CNN
F 2 "Connector_PinHeader_2.54mm:PinHeader_1x15_P2.54mm_Vertical" H 3600 3750 50  0001 C CNN
F 3 "~" H 3600 3750 50  0001 C CNN
	1    3600 3750
	-1   0    0    -1  
$EndComp
Wire Wire Line
	3800 3050 4700 3050
Wire Wire Line
	4700 3150 3800 3150
Wire Wire Line
	3800 3250 4700 3250
Wire Wire Line
	4700 3350 3800 3350
Wire Wire Line
	3800 3450 4700 3450
Wire Wire Line
	4700 3550 3800 3550
Wire Wire Line
	3800 3650 4700 3650
Wire Wire Line
	4700 3750 3800 3750
Wire Wire Line
	3800 3850 4700 3850
Wire Wire Line
	4700 3950 3800 3950
Wire Wire Line
	4700 4150 3800 4150
Wire Wire Line
	3800 4250 4700 4250
Wire Wire Line
	4700 4350 3800 4350
Wire Wire Line
	3800 4450 4700 4450
Wire Wire Line
	6300 3050 7200 3050
Wire Wire Line
	7200 3150 6300 3150
Wire Wire Line
	6300 3250 7200 3250
Wire Wire Line
	7200 3350 6300 3350
Wire Wire Line
	6300 3450 7200 3450
Wire Wire Line
	7200 3550 6300 3550
Wire Wire Line
	6300 3650 7200 3650
Wire Wire Line
	7200 3750 6300 3750
Wire Wire Line
	6300 3850 7200 3850
Wire Wire Line
	7200 3950 6300 3950
Wire Wire Line
	6300 4050 7200 4050
Wire Wire Line
	7200 4150 6300 4150
Wire Wire Line
	6300 4250 7200 4250
Wire Wire Line
	7200 4350 6300 4350
Wire Wire Line
	6300 4450 7200 4450
$Comp
L power:+5V #PWR03
U 1 1 6099F8D5
P 1700 1150
F 0 "#PWR03" H 1700 1000 50  0001 C CNN
F 1 "+5V" H 1715 1323 50  0000 C CNN
F 2 "" H 1700 1150 50  0001 C CNN
F 3 "" H 1700 1150 50  0001 C CNN
	1    1700 1150
	1    0    0    -1  
$EndComp
$Comp
L Device:C C2
U 1 1 609A08D4
P 1700 1450
F 0 "C2" H 1815 1496 50  0000 L CNN
F 1 "100nF" H 1815 1405 50  0000 L CNN
F 2 "Capacitor_THT:C_Disc_D4.3mm_W1.9mm_P5.00mm" H 1738 1300 50  0001 C CNN
F 3 "~" H 1700 1450 50  0001 C CNN
	1    1700 1450
	1    0    0    -1  
$EndComp
$Comp
L power:GND #PWR04
U 1 1 609A11DF
P 1700 1750
F 0 "#PWR04" H 1700 1500 50  0001 C CNN
F 1 "GND" H 1705 1577 50  0000 C CNN
F 2 "" H 1700 1750 50  0001 C CNN
F 3 "" H 1700 1750 50  0001 C CNN
	1    1700 1750
	1    0    0    -1  
$EndComp
Wire Wire Line
	1700 1600 1700 1750
Wire Wire Line
	1700 1300 1700 1150
Text Label 4200 4350 0    50   ~ 0
GND
Text Label 4200 3950 0    50   ~ 0
GND
Text Label 4200 3150 0    50   ~ 0
GND
Text Label 6650 3650 0    50   ~ 0
GND
Text Label 4200 3250 0    50   ~ 0
+5V
$Comp
L power:+5V #PWR015
U 1 1 609A562F
P 9150 1350
F 0 "#PWR015" H 9150 1200 50  0001 C CNN
F 1 "+5V" H 9165 1523 50  0000 C CNN
F 2 "" H 9150 1350 50  0001 C CNN
F 3 "" H 9150 1350 50  0001 C CNN
	1    9150 1350
	1    0    0    -1  
$EndComp
Wire Wire Line
	9150 1500 9150 1450
$Comp
L power:GND #PWR016
U 1 1 609A6BF3
P 9150 2100
F 0 "#PWR016" H 9150 1850 50  0001 C CNN
F 1 "GND" H 9155 1927 50  0000 C CNN
F 2 "" H 9150 2100 50  0001 C CNN
F 3 "" H 9150 2100 50  0001 C CNN
	1    9150 2100
	1    0    0    -1  
$EndComp
$Comp
L Device:R R9
U 1 1 609A837D
P 8500 1550
F 0 "R9" H 8570 1596 50  0000 L CNN
F 1 "1k" H 8570 1505 50  0000 L CNN
F 2 "Resistor_THT:R_Axial_DIN0207_L6.3mm_D2.5mm_P10.16mm_Horizontal" V 8430 1550 50  0001 C CNN
F 3 "~" H 8500 1550 50  0001 C CNN
	1    8500 1550
	1    0    0    -1  
$EndComp
Wire Wire Line
	8500 1700 8500 1800
Wire Wire Line
	8500 1800 8850 1800
$Comp
L power:+3.3V #PWR014
U 1 1 609AA1F5
P 8500 1400
F 0 "#PWR014" H 8500 1250 50  0001 C CNN
F 1 "+3.3V" H 8515 1573 50  0000 C CNN
F 2 "" H 8500 1400 50  0001 C CNN
F 3 "" H 8500 1400 50  0001 C CNN
	1    8500 1400
	1    0    0    -1  
$EndComp
$Comp
L Device:C C4
U 1 1 609ABDCA
P 9850 1750
F 0 "C4" H 9965 1796 50  0000 L CNN
F 1 "100nF" H 9965 1705 50  0000 L CNN
F 2 "Capacitor_THT:C_Disc_D4.3mm_W1.9mm_P5.00mm" H 9888 1600 50  0001 C CNN
F 3 "~" H 9850 1750 50  0001 C CNN
	1    9850 1750
	1    0    0    -1  
$EndComp
Wire Wire Line
	9850 1600 9850 1450
Wire Wire Line
	9850 1450 9150 1450
Connection ~ 9150 1450
Wire Wire Line
	9150 1450 9150 1350
$Comp
L power:GND #PWR023
U 1 1 609AD163
P 9850 1900
F 0 "#PWR023" H 9850 1650 50  0001 C CNN
F 1 "GND" H 9855 1727 50  0000 C CNN
F 2 "" H 9850 1900 50  0001 C CNN
F 3 "" H 9850 1900 50  0001 C CNN
	1    9850 1900
	1    0    0    -1  
$EndComp
Text Label 4150 4050 0    50   ~ 0
+3V3
$Comp
L Connector_Generic:Conn_01x04 J8
U 1 1 609B1959
P 9450 3450
F 0 "J8" H 9530 3442 50  0000 L CNN
F 1 "Conn_01x04" H 9530 3351 50  0000 L CNN
F 2 "Connector_PinHeader_2.54mm:PinHeader_1x04_P2.54mm_Vertical" H 9450 3450 50  0001 C CNN
F 3 "~" H 9450 3450 50  0001 C CNN
	1    9450 3450
	1    0    0    -1  
$EndComp
Text Notes 9100 2900 0    79   ~ 0
I2C bus
Text Label 6650 3250 0    50   ~ 0
SDA
Text Label 6650 3150 0    50   ~ 0
SCL
$Comp
L power:+5V #PWR017
U 1 1 609B72E4
P 9150 3250
F 0 "#PWR017" H 9150 3100 50  0001 C CNN
F 1 "+5V" H 9165 3423 50  0000 C CNN
F 2 "" H 9150 3250 50  0001 C CNN
F 3 "" H 9150 3250 50  0001 C CNN
	1    9150 3250
	1    0    0    -1  
$EndComp
Wire Wire Line
	9250 3350 9150 3350
Wire Wire Line
	9150 3350 9150 3250
$Comp
L power:GND #PWR018
U 1 1 609B85E1
P 9150 3700
F 0 "#PWR018" H 9150 3450 50  0001 C CNN
F 1 "GND" H 9155 3527 50  0000 C CNN
F 2 "" H 9150 3700 50  0001 C CNN
F 3 "" H 9150 3700 50  0001 C CNN
	1    9150 3700
	1    0    0    -1  
$EndComp
Wire Wire Line
	9150 3700 9150 3650
Wire Wire Line
	9150 3650 9250 3650
Wire Wire Line
	9250 3450 8900 3450
Wire Wire Line
	9250 3550 8900 3550
Text Label 8900 3450 0    50   ~ 0
SDA
Text Label 8900 3550 0    50   ~ 0
SCL
$Comp
L Connector_Generic:Conn_01x04 J9
U 1 1 609CA24F
P 9450 4400
F 0 "J9" H 9530 4392 50  0000 L CNN
F 1 "Conn_01x04" H 9530 4301 50  0000 L CNN
F 2 "Connector_PinHeader_2.54mm:PinHeader_1x04_P2.54mm_Vertical" H 9450 4400 50  0001 C CNN
F 3 "~" H 9450 4400 50  0001 C CNN
	1    9450 4400
	1    0    0    -1  
$EndComp
$Comp
L power:+5V #PWR019
U 1 1 609CA255
P 9150 4200
F 0 "#PWR019" H 9150 4050 50  0001 C CNN
F 1 "+5V" H 9165 4373 50  0000 C CNN
F 2 "" H 9150 4200 50  0001 C CNN
F 3 "" H 9150 4200 50  0001 C CNN
	1    9150 4200
	1    0    0    -1  
$EndComp
Wire Wire Line
	9250 4300 9150 4300
Wire Wire Line
	9150 4300 9150 4200
$Comp
L power:GND #PWR020
U 1 1 609CA25D
P 9150 4650
F 0 "#PWR020" H 9150 4400 50  0001 C CNN
F 1 "GND" H 9155 4477 50  0000 C CNN
F 2 "" H 9150 4650 50  0001 C CNN
F 3 "" H 9150 4650 50  0001 C CNN
	1    9150 4650
	1    0    0    -1  
$EndComp
Wire Wire Line
	9150 4650 9150 4600
Wire Wire Line
	9150 4600 9250 4600
Wire Wire Line
	9250 4400 8900 4400
Wire Wire Line
	9250 4500 8900 4500
Text Label 8900 4400 0    50   ~ 0
SDA
Text Label 8900 4500 0    50   ~ 0
SCL
$Comp
L Connector_Generic:Conn_01x04 J10
U 1 1 609CBB24
P 9450 5300
F 0 "J10" H 9530 5292 50  0000 L CNN
F 1 "Conn_01x04" H 9530 5201 50  0000 L CNN
F 2 "Connector_PinHeader_2.54mm:PinHeader_1x04_P2.54mm_Vertical" H 9450 5300 50  0001 C CNN
F 3 "~" H 9450 5300 50  0001 C CNN
	1    9450 5300
	1    0    0    -1  
$EndComp
$Comp
L power:+5V #PWR021
U 1 1 609CBB2A
P 9150 5100
F 0 "#PWR021" H 9150 4950 50  0001 C CNN
F 1 "+5V" H 9165 5273 50  0000 C CNN
F 2 "" H 9150 5100 50  0001 C CNN
F 3 "" H 9150 5100 50  0001 C CNN
	1    9150 5100
	1    0    0    -1  
$EndComp
Wire Wire Line
	9250 5200 9150 5200
Wire Wire Line
	9150 5200 9150 5100
$Comp
L power:GND #PWR022
U 1 1 609CBB32
P 9150 5550
F 0 "#PWR022" H 9150 5300 50  0001 C CNN
F 1 "GND" H 9155 5377 50  0000 C CNN
F 2 "" H 9150 5550 50  0001 C CNN
F 3 "" H 9150 5550 50  0001 C CNN
	1    9150 5550
	1    0    0    -1  
$EndComp
Wire Wire Line
	9150 5550 9150 5500
Wire Wire Line
	9150 5500 9250 5500
Wire Wire Line
	9250 5300 8900 5300
Wire Wire Line
	9250 5400 8900 5400
Text Label 8900 5300 0    50   ~ 0
SDA
Text Label 8900 5400 0    50   ~ 0
SCL
Wire Notes Line
	8750 2750 10100 2750
Wire Notes Line
	10100 2750 10100 5850
Wire Notes Line
	10100 5850 8750 5850
Wire Notes Line
	8750 5850 8750 2750
Text Notes 9400 1350 0    50   ~ 0
Sensor de temperatura\ny humedad
Wire Notes Line
	8350 1050 10450 1050
Wire Notes Line
	10450 1050 10450 2400
Wire Notes Line
	10450 2400 8350 2400
Wire Notes Line
	8350 2400 8350 1050
$Comp
L power:+5V #PWR010
U 1 1 609E78F3
P 4750 1350
F 0 "#PWR010" H 4750 1200 50  0001 C CNN
F 1 "+5V" H 4765 1523 50  0000 C CNN
F 2 "" H 4750 1350 50  0001 C CNN
F 3 "" H 4750 1350 50  0001 C CNN
	1    4750 1350
	1    0    0    -1  
$EndComp
Wire Wire Line
	4950 1850 4750 1850
Wire Wire Line
	4750 1850 4750 1750
$Comp
L power:GND #PWR011
U 1 1 609EE12A
P 4850 2100
F 0 "#PWR011" H 4850 1850 50  0001 C CNN
F 1 "GND" H 4855 1927 50  0000 C CNN
F 2 "" H 4850 2100 50  0001 C CNN
F 3 "" H 4850 2100 50  0001 C CNN
	1    4850 2100
	1    0    0    -1  
$EndComp
Wire Wire Line
	4850 2100 4850 2050
Wire Wire Line
	4850 1750 4950 1750
$Comp
L Device:C C3
U 1 1 609EFD14
P 4500 1900
F 0 "C3" H 4615 1946 50  0000 L CNN
F 1 "100nF" H 4615 1855 50  0000 L CNN
F 2 "Capacitor_THT:C_Disc_D4.3mm_W1.9mm_P5.00mm" H 4538 1750 50  0001 C CNN
F 3 "~" H 4500 1900 50  0001 C CNN
	1    4500 1900
	-1   0    0    -1  
$EndComp
Wire Wire Line
	4500 1750 4750 1750
Connection ~ 4750 1750
Wire Wire Line
	4750 1750 4750 1350
Wire Wire Line
	4500 2050 4850 2050
Connection ~ 4850 2050
Wire Wire Line
	4850 2050 4850 1750
Wire Wire Line
	6250 1800 6350 1800
Wire Wire Line
	6250 1700 6350 1700
Text Label 6650 3750 0    50   ~ 0
TX
Text Label 6650 3850 0    50   ~ 0
RX
Text Label 6350 1700 0    50   ~ 0
TX
Text Label 6350 1800 0    50   ~ 0
RX
$Comp
L Connector_Generic:Conn_01x02 J5
U 1 1 60A0893B
P 6750 1300
F 0 "J5" H 6830 1292 50  0000 L CNN
F 1 "Conn_01x02" H 6830 1201 50  0000 L CNN
F 2 "Connector_PinHeader_2.54mm:PinHeader_1x02_P2.54mm_Vertical" H 6750 1300 50  0001 C CNN
F 3 "~" H 6750 1300 50  0001 C CNN
	1    6750 1300
	0    -1   -1   0   
$EndComp
$Comp
L Connector_Generic:Conn_01x02 J4
U 1 1 60A0C855
P 4300 1500
F 0 "J4" H 4218 1717 50  0000 C CNN
F 1 "Conn_01x02" H 4218 1626 50  0000 C CNN
F 2 "Connector_PinHeader_2.54mm:PinHeader_1x02_P2.54mm_Vertical" H 4300 1500 50  0001 C CNN
F 3 "~" H 4300 1500 50  0001 C CNN
	1    4300 1500
	-1   0    0    -1  
$EndComp
Wire Wire Line
	4500 1500 4500 1550
Wire Wire Line
	4950 1550 4500 1550
Connection ~ 4500 1550
Wire Wire Line
	4500 1550 4500 1600
Text Notes 5300 1100 0    79   ~ 0
Sensor de CO2
Wire Notes Line
	4100 900  7400 900 
Wire Notes Line
	7400 900  7400 2350
Wire Notes Line
	7400 2350 4100 2350
Wire Notes Line
	4100 2350 4100 900 
Text Label 6650 3450 0    50   ~ 0
D4
Text Label 8550 1800 0    50   ~ 0
D3
Text Label 6650 3350 0    50   ~ 0
D3
$Comp
L Device:C C1
U 1 1 60A54523
P 1200 1450
F 0 "C1" H 1315 1496 50  0000 L CNN
F 1 "100nF" H 1315 1405 50  0000 L CNN
F 2 "Capacitor_THT:C_Disc_D4.3mm_W1.9mm_P5.00mm" H 1238 1300 50  0001 C CNN
F 3 "~" H 1200 1450 50  0001 C CNN
	1    1200 1450
	1    0    0    -1  
$EndComp
$Comp
L power:GND #PWR02
U 1 1 60A54529
P 1200 1750
F 0 "#PWR02" H 1200 1500 50  0001 C CNN
F 1 "GND" H 1205 1577 50  0000 C CNN
F 2 "" H 1200 1750 50  0001 C CNN
F 3 "" H 1200 1750 50  0001 C CNN
	1    1200 1750
	1    0    0    -1  
$EndComp
Wire Wire Line
	1200 1600 1200 1750
Wire Wire Line
	1200 1300 1200 1150
Wire Notes Line
	8100 6350 6450 6350
Wire Notes Line
	6450 4850 8100 4850
Text Notes 6500 6250 0    79   ~ 0
Driver para\ncarga
$Comp
L power:+5V #PWR012
U 1 1 60A316B3
P 7300 5100
F 0 "#PWR012" H 7300 4950 50  0001 C CNN
F 1 "+5V" H 7315 5273 50  0000 C CNN
F 2 "" H 7300 5100 50  0001 C CNN
F 3 "" H 7300 5100 50  0001 C CNN
	1    7300 5100
	1    0    0    -1  
$EndComp
$Comp
L Connector_Generic:Conn_01x02 J6
U 1 1 60A2C0C3
P 7700 5750
F 0 "J6" H 7780 5742 50  0000 L CNN
F 1 "Conn_01x02" H 7780 5651 50  0000 L CNN
F 2 "Connector_PinHeader_2.54mm:PinHeader_1x02_P2.54mm_Vertical" H 7700 5750 50  0001 C CNN
F 3 "~" H 7700 5750 50  0001 C CNN
	1    7700 5750
	1    0    0    -1  
$EndComp
$Comp
L power:GND #PWR013
U 1 1 60A2B238
P 7300 6100
F 0 "#PWR013" H 7300 5850 50  0001 C CNN
F 1 "GND" H 7305 5927 50  0000 C CNN
F 2 "" H 7300 6100 50  0001 C CNN
F 3 "" H 7300 6100 50  0001 C CNN
	1    7300 6100
	1    0    0    -1  
$EndComp
Text Label 6400 5350 0    50   ~ 0
D4
Wire Wire Line
	6600 5350 6400 5350
$Comp
L Device:R R8
U 1 1 60A23093
P 6750 5350
F 0 "R8" H 6820 5396 50  0000 L CNN
F 1 "2k" H 6820 5305 50  0000 L CNN
F 2 "Resistor_THT:R_Axial_DIN0207_L6.3mm_D2.5mm_P10.16mm_Horizontal" V 6680 5350 50  0001 C CNN
F 3 "~" H 6750 5350 50  0001 C CNN
	1    6750 5350
	0    1    1    0   
$EndComp
$Comp
L Connector_Generic:Conn_01x04 J1
U 1 1 60A82BF4
P 1500 3500
F 0 "J1" H 1418 3817 50  0000 C CNN
F 1 "Conn_01x04" H 1418 3726 50  0000 C CNN
F 2 "Connector_PinHeader_2.54mm:PinHeader_1x04_P2.54mm_Vertical" H 1500 3500 50  0001 C CNN
F 3 "~" H 1500 3500 50  0001 C CNN
	1    1500 3500
	-1   0    0    -1  
$EndComp
$Comp
L Device:R R1
U 1 1 60A96971
P 1800 3950
F 0 "R1" H 1870 3996 50  0000 L CNN
F 1 "1k" H 1870 3905 50  0000 L CNN
F 2 "Resistor_THT:R_Axial_DIN0207_L6.3mm_D2.5mm_P10.16mm_Horizontal" V 1730 3950 50  0001 C CNN
F 3 "~" H 1800 3950 50  0001 C CNN
	1    1800 3950
	1    0    0    -1  
$EndComp
$Comp
L Device:R R2
U 1 1 60A983F0
P 2050 3950
F 0 "R2" H 2120 3996 50  0000 L CNN
F 1 "1k" H 2120 3905 50  0000 L CNN
F 2 "Resistor_THT:R_Axial_DIN0207_L6.3mm_D2.5mm_P10.16mm_Horizontal" V 1980 3950 50  0001 C CNN
F 3 "~" H 2050 3950 50  0001 C CNN
	1    2050 3950
	1    0    0    -1  
$EndComp
$Comp
L Device:R R3
U 1 1 60A98727
P 2300 3950
F 0 "R3" H 2370 3996 50  0000 L CNN
F 1 "1k" H 2370 3905 50  0000 L CNN
F 2 "Resistor_THT:R_Axial_DIN0207_L6.3mm_D2.5mm_P10.16mm_Horizontal" V 2230 3950 50  0001 C CNN
F 3 "~" H 2300 3950 50  0001 C CNN
	1    2300 3950
	1    0    0    -1  
$EndComp
Wire Wire Line
	1700 3700 1800 3700
Wire Wire Line
	1700 3600 2050 3600
Wire Wire Line
	1700 3500 2300 3500
$Comp
L power:+3.3V #PWR06
U 1 1 60A9EF32
P 1900 3300
F 0 "#PWR06" H 1900 3150 50  0001 C CNN
F 1 "+3.3V" H 1915 3473 50  0000 C CNN
F 2 "" H 1900 3300 50  0001 C CNN
F 3 "" H 1900 3300 50  0001 C CNN
	1    1900 3300
	1    0    0    -1  
$EndComp
Wire Wire Line
	1700 3400 1900 3400
Wire Wire Line
	1900 3400 1900 3300
Wire Wire Line
	1800 3800 1800 3700
Connection ~ 1800 3700
Wire Wire Line
	1800 3700 2500 3700
Wire Wire Line
	2050 3800 2050 3600
Connection ~ 2050 3600
Wire Wire Line
	2050 3600 2500 3600
Wire Wire Line
	2300 3800 2300 3500
Connection ~ 2300 3500
Wire Wire Line
	2300 3500 2500 3500
$Comp
L power:GND #PWR05
U 1 1 60AA912B
P 1800 4100
F 0 "#PWR05" H 1800 3850 50  0001 C CNN
F 1 "GND" H 1805 3927 50  0000 C CNN
F 2 "" H 1800 4100 50  0001 C CNN
F 3 "" H 1800 4100 50  0001 C CNN
	1    1800 4100
	1    0    0    -1  
$EndComp
$Comp
L power:GND #PWR07
U 1 1 60AA95A4
P 2050 4100
F 0 "#PWR07" H 2050 3850 50  0001 C CNN
F 1 "GND" H 2055 3927 50  0000 C CNN
F 2 "" H 2050 4100 50  0001 C CNN
F 3 "" H 2050 4100 50  0001 C CNN
	1    2050 4100
	1    0    0    -1  
$EndComp
$Comp
L power:GND #PWR09
U 1 1 60AA98CC
P 2300 4100
F 0 "#PWR09" H 2300 3850 50  0001 C CNN
F 1 "GND" H 2305 3927 50  0000 C CNN
F 2 "" H 2300 4100 50  0001 C CNN
F 3 "" H 2300 4100 50  0001 C CNN
	1    2300 4100
	1    0    0    -1  
$EndComp
Text Label 2500 3500 0    50   ~ 0
BOT0
Text Label 2500 3600 0    50   ~ 0
BOT1
Text Label 2500 3700 0    50   ~ 0
BOT2
Text Label 6650 3050 0    50   ~ 0
BOT0
Text Label 4200 3450 0    50   ~ 0
BOT1
Text Label 4200 3350 0    50   ~ 0
BOT2
Text Notes 1700 3000 0    79   ~ 0
Botones
Wire Notes Line
	2850 2850 2850 4350
Wire Notes Line
	1100 4350 1100 2850
Text Notes 1150 3400 0    50   ~ 0
Común\n
Wire Notes Line
	1100 2850 2850 2850
Wire Notes Line
	1100 4350 2850 4350
Text Notes 1100 3500 0    50   ~ 0
Boton 0
Text Notes 1100 3600 0    50   ~ 0
Boton 1
Text Notes 1100 3700 0    50   ~ 0
Boton 2
$Comp
L power:GND #PWR08
U 1 1 60AC58CE
P 2100 6100
F 0 "#PWR08" H 2100 5850 50  0001 C CNN
F 1 "GND" H 2105 5927 50  0000 C CNN
F 2 "" H 2100 6100 50  0001 C CNN
F 3 "" H 2100 6100 50  0001 C CNN
	1    2100 6100
	1    0    0    -1  
$EndComp
Wire Wire Line
	2100 6100 2100 6000
Wire Wire Line
	2100 6000 2050 6000
Text Notes 1500 5900 1    50   ~ 0
Común\n
Text Notes 2000 5900 0    50   ~ 0
LED 0
Text Notes 2000 5800 0    50   ~ 0
LED 1
Text Notes 2000 5700 0    50   ~ 0
LED 2
Text Notes 2000 5600 0    50   ~ 0
LED 3
$Comp
L Device:R R4
U 1 1 60ACAD73
P 2400 5600
F 0 "R4" H 2470 5646 50  0000 L CNN
F 1 "470" H 2470 5555 50  0000 L CNN
F 2 "Resistor_THT:R_Axial_DIN0207_L6.3mm_D2.5mm_P10.16mm_Horizontal" V 2330 5600 50  0001 C CNN
F 3 "~" H 2400 5600 50  0001 C CNN
	1    2400 5600
	0    1    -1   0   
$EndComp
$Comp
L Device:R R6
U 1 1 60ACB54D
P 2700 5700
F 0 "R6" H 2770 5746 50  0000 L CNN
F 1 "470" H 2770 5655 50  0000 L CNN
F 2 "Resistor_THT:R_Axial_DIN0207_L6.3mm_D2.5mm_P10.16mm_Horizontal" V 2630 5700 50  0001 C CNN
F 3 "~" H 2700 5700 50  0001 C CNN
	1    2700 5700
	0    1    -1   0   
$EndComp
$Comp
L Device:R R5
U 1 1 60ACB9D1
P 2400 5800
F 0 "R5" H 2470 5846 50  0000 L CNN
F 1 "470" H 2470 5755 50  0000 L CNN
F 2 "Resistor_THT:R_Axial_DIN0207_L6.3mm_D2.5mm_P10.16mm_Horizontal" V 2330 5800 50  0001 C CNN
F 3 "~" H 2400 5800 50  0001 C CNN
	1    2400 5800
	0    1    1    0   
$EndComp
$Comp
L Device:R R7
U 1 1 60ACBF09
P 2700 5900
F 0 "R7" H 2770 5946 50  0000 L CNN
F 1 "470" H 2770 5855 50  0000 L CNN
F 2 "Resistor_THT:R_Axial_DIN0207_L6.3mm_D2.5mm_P10.16mm_Horizontal" V 2630 5900 50  0001 C CNN
F 3 "~" H 2700 5900 50  0001 C CNN
	1    2700 5900
	0    1    1    0   
$EndComp
Wire Wire Line
	2250 5600 2050 5600
Wire Wire Line
	2050 5700 2550 5700
Wire Wire Line
	2050 5800 2250 5800
Wire Wire Line
	2050 5900 2550 5900
Text Label 3100 5900 0    50   ~ 0
LED0
Text Label 3100 5800 0    50   ~ 0
LED1
Text Label 3100 5700 0    50   ~ 0
LED2
Text Label 3100 5600 0    50   ~ 0
LED3
Text Notes 2150 5250 0    79   ~ 0
LEDs
Wire Notes Line
	3350 5100 3350 6300
Wire Notes Line
	3350 6300 1400 6300
Wire Notes Line
	1400 6300 1400 5100
Wire Notes Line
	1400 5100 3350 5100
Wire Wire Line
	3100 5900 2850 5900
Wire Wire Line
	3100 5800 2550 5800
Wire Wire Line
	3100 5700 2850 5700
Wire Wire Line
	3100 5600 2550 5600
$Comp
L AirQuality:MH-Z19C U2
U 1 1 60B44C00
P 5600 1700
F 0 "U2" H 5600 2165 50  0000 C CNN
F 1 "MH-Z19C" H 5600 2074 50  0000 C CNN
F 2 "AirQualityPCB:MH-Z19" H 5600 1700 50  0001 C CNN
F 3 "" H 5600 1700 50  0001 C CNN
	1    5600 1700
	1    0    0    -1  
$EndComp
Text Label 6650 3950 0    50   ~ 0
LED0
Text Label 6650 4050 0    50   ~ 0
LED1
Text Label 6650 4150 0    50   ~ 0
LED2
Text Label 6650 4250 0    50   ~ 0
LED3
$Comp
L Sensor_Gas:MQ-6 U4
U 1 1 60999364
P 4450 6000
F 0 "U4" H 4450 6581 50  0000 C CNN
F 1 "MQ-135" H 4450 6490 50  0000 C CNN
F 2 "Sensor:MQ-6" H 4500 5550 50  0001 C CNN
F 3 "https://www.winsen-sensor.com/d/files/semiconductor/mq-6.pdf" H 4450 6250 50  0001 C CNN
	1    4450 6000
	1    0    0    -1  
$EndComp
$Comp
L power:+5V #PWR025
U 1 1 6099A20E
P 3850 5300
F 0 "#PWR025" H 3850 5150 50  0001 C CNN
F 1 "+5V" H 3865 5473 50  0000 C CNN
F 2 "" H 3850 5300 50  0001 C CNN
F 3 "" H 3850 5300 50  0001 C CNN
	1    3850 5300
	1    0    0    -1  
$EndComp
Wire Wire Line
	3850 6100 4050 6100
Wire Wire Line
	4050 5900 3850 5900
Connection ~ 3850 5900
Wire Wire Line
	3850 5900 3850 6100
$Comp
L power:GND #PWR026
U 1 1 609A7FE9
P 4450 6400
F 0 "#PWR026" H 4450 6150 50  0001 C CNN
F 1 "GND" H 4455 6227 50  0000 C CNN
F 2 "" H 4450 6400 50  0001 C CNN
F 3 "" H 4450 6400 50  0001 C CNN
	1    4450 6400
	1    0    0    -1  
$EndComp
$Comp
L Device:R_POT_TRIM RV1
U 1 1 609A973C
P 5150 6650
F 0 "RV1" H 5080 6696 50  0000 R CNN
F 1 "47k" H 5080 6605 50  0000 R CNN
F 2 "Potentiometer_THT:Potentiometer_Bourns_3296W_Vertical" H 5150 6650 50  0001 C CNN
F 3 "~" H 5150 6650 50  0001 C CNN
	1    5150 6650
	-1   0    0    -1  
$EndComp
Wire Wire Line
	4850 5900 5150 5900
Wire Wire Line
	5150 5900 5150 6100
Wire Wire Line
	5150 5900 5200 5900
Connection ~ 5150 5900
Connection ~ 5150 6100
Wire Wire Line
	5000 6650 4950 6650
Wire Wire Line
	4950 6650 4950 6350
$Comp
L power:GND #PWR027
U 1 1 609BF6B4
P 5150 6800
F 0 "#PWR027" H 5150 6550 50  0001 C CNN
F 1 "GND" H 5155 6627 50  0000 C CNN
F 2 "" H 5150 6800 50  0001 C CNN
F 3 "" H 5150 6800 50  0001 C CNN
	1    5150 6800
	1    0    0    -1  
$EndComp
Wire Wire Line
	4850 6100 5150 6100
Wire Wire Line
	5150 6100 5150 6350
Wire Wire Line
	4950 6350 5150 6350
Connection ~ 5150 6350
Wire Wire Line
	5150 6350 5150 6500
Text Label 5450 5900 0    50   ~ 0
A0
$Comp
L Connector_Generic:Conn_02x05_Odd_Even J2
U 1 1 609E4F9F
P 1750 5800
F 0 "J2" H 1800 6217 50  0000 C CNN
F 1 "Conn_02x05_Odd_Even" H 1800 6126 50  0000 C CNN
F 2 "Connector_PinHeader_2.54mm:PinHeader_2x05_P2.54mm_Vertical" H 1750 5800 50  0001 C CNN
F 3 "~" H 1750 5800 50  0001 C CNN
	1    1750 5800
	1    0    0    -1  
$EndComp
Wire Wire Line
	1550 5600 1550 5700
Wire Wire Line
	1550 6100 2100 6100
Connection ~ 1550 5700
Wire Wire Line
	1550 5700 1550 5800
Connection ~ 1550 5800
Wire Wire Line
	1550 5800 1550 5900
Connection ~ 1550 5900
Wire Wire Line
	1550 5900 1550 6000
Connection ~ 1550 6000
Wire Wire Line
	1550 6000 1550 6100
Connection ~ 2100 6100
Text Notes 4700 5500 0    79   ~ 0
Sensor de gas\n(151mA - 800mW)
Wire Notes Line
	3650 5100 5850 5100
Wire Notes Line
	5900 5100 5900 7100
Wire Notes Line
	5900 7100 3700 7100
Wire Notes Line
	3700 7100 3700 5100
Text Label 4200 3050 0    50   ~ 0
A0
Text Label 6650 4350 0    50   ~ 0
GND
$Comp
L Device:Jumper_NO_Small JP2
U 1 1 609AF437
P 5300 5900
F 0 "JP2" H 5300 6085 50  0000 C CNN
F 1 "Jumper_NO_Small" H 5300 5994 50  0000 C CNN
F 2 "Connector_PinHeader_2.54mm:PinHeader_1x02_P2.54mm_Vertical" H 5300 5900 50  0001 C CNN
F 3 "~" H 5300 5900 50  0001 C CNN
	1    5300 5900
	1    0    0    -1  
$EndComp
Wire Wire Line
	5400 5900 5450 5900
$Comp
L Device:Jumper_NO_Small JP1
U 1 1 609CFD2E
P 3850 5400
F 0 "JP1" V 3804 5448 50  0000 L CNN
F 1 "Jumper_NO_Small" V 3895 5448 50  0000 L CNN
F 2 "Connector_PinHeader_2.54mm:PinHeader_1x02_P2.54mm_Vertical" H 3850 5400 50  0001 C CNN
F 3 "~" H 3850 5400 50  0001 C CNN
	1    3850 5400
	0    1    1    0   
$EndComp
Wire Wire Line
	3850 5600 3850 5500
Wire Wire Line
	3850 5600 4450 5600
Wire Wire Line
	3850 5600 3850 5900
Connection ~ 3850 5600
$Comp
L Diode:1N4003 D1
U 1 1 60A19392
P 7100 5800
F 0 "D1" V 7054 5880 50  0000 L CNN
F 1 "1N4003" V 7145 5880 50  0000 L CNN
F 2 "Diode_THT:D_DO-41_SOD81_P10.16mm_Horizontal" H 7100 5625 50  0001 C CNN
F 3 "http://www.vishay.com/docs/88503/1n4001.pdf" H 7100 5800 50  0001 C CNN
	1    7100 5800
	0    1    1    0   
$EndComp
Wire Wire Line
	7300 5750 7500 5750
Wire Wire Line
	7500 5850 7300 5850
Wire Wire Line
	7300 5850 7300 5950
Wire Wire Line
	7100 5950 7300 5950
Connection ~ 7300 5950
$Comp
L power:GND #PWR0101
U 1 1 60A51BD4
P 6850 1500
F 0 "#PWR0101" H 6850 1250 50  0001 C CNN
F 1 "GND" H 6855 1327 50  0000 C CNN
F 2 "" H 6850 1500 50  0001 C CNN
F 3 "" H 6850 1500 50  0001 C CNN
	1    6850 1500
	1    0    0    -1  
$EndComp
Wire Wire Line
	6250 1500 6750 1500
$Comp
L power:+3.3V #PWR01
U 1 1 60A5674E
P 1200 1150
F 0 "#PWR01" H 1200 1000 50  0001 C CNN
F 1 "+3.3V" H 1215 1323 50  0000 C CNN
F 2 "" H 1200 1150 50  0001 C CNN
F 3 "" H 1200 1150 50  0001 C CNN
	1    1200 1150
	1    0    0    -1  
$EndComp
Wire Wire Line
	3800 4050 4700 4050
Text Label 6650 4450 0    50   ~ 0
+3V3
Text Label 6650 3550 0    50   ~ 0
+3V3
$Comp
L Transistor_BJT:BC558 Q1
U 1 1 610111A9
P 7200 5350
F 0 "Q1" H 7391 5396 50  0000 L CNN
F 1 "BC558" H 7391 5305 50  0000 L CNN
F 2 "Package_TO_SOT_THT:TO-92_Inline" H 7400 5275 50  0001 L CIN
F 3 "https://www.onsemi.com/pub/Collateral/BC556BTA-D.pdf" H 7200 5350 50  0001 L CNN
	1    7200 5350
	1    0    0    1   
$EndComp
Wire Wire Line
	7300 5950 7300 6100
Wire Wire Line
	7100 5650 7300 5650
Connection ~ 7300 5650
Wire Wire Line
	7300 5650 7300 5750
Wire Wire Line
	7300 5150 7300 5100
Wire Wire Line
	6900 5350 7000 5350
Wire Wire Line
	7300 5550 7300 5650
Wire Notes Line
	8100 4850 8100 6350
Wire Notes Line
	6450 4850 6450 6350
$Comp
L power:+5V #PWR0102
U 1 1 611A1F44
P 2250 1150
F 0 "#PWR0102" H 2250 1000 50  0001 C CNN
F 1 "+5V" H 2265 1323 50  0000 C CNN
F 2 "" H 2250 1150 50  0001 C CNN
F 3 "" H 2250 1150 50  0001 C CNN
	1    2250 1150
	1    0    0    -1  
$EndComp
$Comp
L Device:C C5
U 1 1 611A1F4A
P 2250 1450
F 0 "C5" H 2365 1496 50  0000 L CNN
F 1 "100nF" H 2365 1405 50  0000 L CNN
F 2 "Capacitor_THT:C_Disc_D4.3mm_W1.9mm_P5.00mm" H 2288 1300 50  0001 C CNN
F 3 "~" H 2250 1450 50  0001 C CNN
	1    2250 1450
	1    0    0    -1  
$EndComp
$Comp
L power:GND #PWR0103
U 1 1 611A1F50
P 2250 1750
F 0 "#PWR0103" H 2250 1500 50  0001 C CNN
F 1 "GND" H 2255 1577 50  0000 C CNN
F 2 "" H 2250 1750 50  0001 C CNN
F 3 "" H 2250 1750 50  0001 C CNN
	1    2250 1750
	1    0    0    -1  
$EndComp
Wire Wire Line
	2250 1600 2250 1750
Wire Wire Line
	2250 1300 2250 1150
$EndSCHEMATC
