(export (version D)
  (design
    (source /home/leocorzi/Desktop/AirQualityPCB/AirQualityPCB.sch)
    (date "mar 27 jul 2021 03:06:44")
    (tool "Eeschema 5.1.9+dfsg1-1")
    (sheet (number 1) (name /) (tstamps /)
      (title_block
        (title AirQualityPCB)
        (company "Autor: F. Alcalde Bessia")
        (rev 1)
        (date 2021-05-09)
        (source AirQualityPCB.sch)
        (comment (number 1) (value ""))
        (comment (number 2) (value ""))
        (comment (number 3) (value ""))
        (comment (number 4) (value "")))))
  (components
    (comp (ref U1)
      (value "NodeMCU_1.0_(ESP-12E)")
      (footprint "Lolin-NodeMCU-ESP8266:NodeMCU1.0(12-E)")
      (libsource (lib Lolin-NodeMCU-ESP8266) (part "NodeMCU_1.0_(ESP-12E)") (description ""))
      (sheetpath (names /) (tstamps /))
      (tstamp 6098983B))
    (comp (ref U3)
      (value DHT22)
      (footprint Sensor:Aosong_DHT11_5.5x12.0_P2.54mm)
      (datasheet http://akizukidenshi.com/download/ds/aosong/DHT11.pdf)
      (libsource (lib Sensor) (part DHT11) (description "Temperature and humidity module"))
      (sheetpath (names /) (tstamps /))
      (tstamp 6098BB11))
    (comp (ref J7)
      (value Conn_01x15)
      (footprint Connector_PinHeader_2.54mm:PinHeader_1x15_P2.54mm_Vertical)
      (datasheet ~)
      (libsource (lib Connector_Generic) (part Conn_01x15) (description "Generic connector, single row, 01x15, script generated (kicad-library-utils/schlib/autogen/connector/)"))
      (sheetpath (names /) (tstamps /))
      (tstamp 6098D885))
    (comp (ref J3)
      (value Conn_01x15)
      (footprint Connector_PinHeader_2.54mm:PinHeader_1x15_P2.54mm_Vertical)
      (datasheet ~)
      (libsource (lib Connector_Generic) (part Conn_01x15) (description "Generic connector, single row, 01x15, script generated (kicad-library-utils/schlib/autogen/connector/)"))
      (sheetpath (names /) (tstamps /))
      (tstamp 60992404))
    (comp (ref C2)
      (value 100nF)
      (footprint Capacitor_THT:C_Disc_D4.3mm_W1.9mm_P5.00mm)
      (datasheet ~)
      (libsource (lib Device) (part C) (description "Unpolarized capacitor"))
      (sheetpath (names /) (tstamps /))
      (tstamp 609A08D4))
    (comp (ref R9)
      (value 1k)
      (footprint Resistor_THT:R_Axial_DIN0207_L6.3mm_D2.5mm_P10.16mm_Horizontal)
      (datasheet ~)
      (libsource (lib Device) (part R) (description Resistor))
      (sheetpath (names /) (tstamps /))
      (tstamp 609A837D))
    (comp (ref C4)
      (value 100nF)
      (footprint Capacitor_THT:C_Disc_D4.3mm_W1.9mm_P5.00mm)
      (datasheet ~)
      (libsource (lib Device) (part C) (description "Unpolarized capacitor"))
      (sheetpath (names /) (tstamps /))
      (tstamp 609ABDCA))
    (comp (ref J8)
      (value Conn_01x04)
      (footprint Connector_PinHeader_2.54mm:PinHeader_1x04_P2.54mm_Vertical)
      (datasheet ~)
      (libsource (lib Connector_Generic) (part Conn_01x04) (description "Generic connector, single row, 01x04, script generated (kicad-library-utils/schlib/autogen/connector/)"))
      (sheetpath (names /) (tstamps /))
      (tstamp 609B1959))
    (comp (ref J9)
      (value Conn_01x04)
      (footprint Connector_PinHeader_2.54mm:PinHeader_1x04_P2.54mm_Vertical)
      (datasheet ~)
      (libsource (lib Connector_Generic) (part Conn_01x04) (description "Generic connector, single row, 01x04, script generated (kicad-library-utils/schlib/autogen/connector/)"))
      (sheetpath (names /) (tstamps /))
      (tstamp 609CA24F))
    (comp (ref J10)
      (value Conn_01x04)
      (footprint Connector_PinHeader_2.54mm:PinHeader_1x04_P2.54mm_Vertical)
      (datasheet ~)
      (libsource (lib Connector_Generic) (part Conn_01x04) (description "Generic connector, single row, 01x04, script generated (kicad-library-utils/schlib/autogen/connector/)"))
      (sheetpath (names /) (tstamps /))
      (tstamp 609CBB24))
    (comp (ref C3)
      (value 100nF)
      (footprint Capacitor_THT:C_Disc_D4.3mm_W1.9mm_P5.00mm)
      (datasheet ~)
      (libsource (lib Device) (part C) (description "Unpolarized capacitor"))
      (sheetpath (names /) (tstamps /))
      (tstamp 609EFD14))
    (comp (ref J5)
      (value Conn_01x02)
      (footprint Connector_PinHeader_2.54mm:PinHeader_1x02_P2.54mm_Vertical)
      (datasheet ~)
      (libsource (lib Connector_Generic) (part Conn_01x02) (description "Generic connector, single row, 01x02, script generated (kicad-library-utils/schlib/autogen/connector/)"))
      (sheetpath (names /) (tstamps /))
      (tstamp 60A0893B))
    (comp (ref J4)
      (value Conn_01x02)
      (footprint Connector_PinHeader_2.54mm:PinHeader_1x02_P2.54mm_Vertical)
      (datasheet ~)
      (libsource (lib Connector_Generic) (part Conn_01x02) (description "Generic connector, single row, 01x02, script generated (kicad-library-utils/schlib/autogen/connector/)"))
      (sheetpath (names /) (tstamps /))
      (tstamp 60A0C855))
    (comp (ref C1)
      (value 100nF)
      (footprint Capacitor_THT:C_Disc_D4.3mm_W1.9mm_P5.00mm)
      (datasheet ~)
      (libsource (lib Device) (part C) (description "Unpolarized capacitor"))
      (sheetpath (names /) (tstamps /))
      (tstamp 60A54523))
    (comp (ref J6)
      (value Conn_01x02)
      (footprint Connector_PinHeader_2.54mm:PinHeader_1x02_P2.54mm_Vertical)
      (datasheet ~)
      (libsource (lib Connector_Generic) (part Conn_01x02) (description "Generic connector, single row, 01x02, script generated (kicad-library-utils/schlib/autogen/connector/)"))
      (sheetpath (names /) (tstamps /))
      (tstamp 60A2C0C3))
    (comp (ref R8)
      (value 2k)
      (footprint Resistor_THT:R_Axial_DIN0207_L6.3mm_D2.5mm_P10.16mm_Horizontal)
      (datasheet ~)
      (libsource (lib Device) (part R) (description Resistor))
      (sheetpath (names /) (tstamps /))
      (tstamp 60A23093))
    (comp (ref J1)
      (value Conn_01x04)
      (footprint Connector_PinHeader_2.54mm:PinHeader_1x04_P2.54mm_Vertical)
      (datasheet ~)
      (libsource (lib Connector_Generic) (part Conn_01x04) (description "Generic connector, single row, 01x04, script generated (kicad-library-utils/schlib/autogen/connector/)"))
      (sheetpath (names /) (tstamps /))
      (tstamp 60A82BF4))
    (comp (ref R1)
      (value 1k)
      (footprint Resistor_THT:R_Axial_DIN0207_L6.3mm_D2.5mm_P10.16mm_Horizontal)
      (datasheet ~)
      (libsource (lib Device) (part R) (description Resistor))
      (sheetpath (names /) (tstamps /))
      (tstamp 60A96971))
    (comp (ref R2)
      (value 1k)
      (footprint Resistor_THT:R_Axial_DIN0207_L6.3mm_D2.5mm_P10.16mm_Horizontal)
      (datasheet ~)
      (libsource (lib Device) (part R) (description Resistor))
      (sheetpath (names /) (tstamps /))
      (tstamp 60A983F0))
    (comp (ref R3)
      (value 1k)
      (footprint Resistor_THT:R_Axial_DIN0207_L6.3mm_D2.5mm_P10.16mm_Horizontal)
      (datasheet ~)
      (libsource (lib Device) (part R) (description Resistor))
      (sheetpath (names /) (tstamps /))
      (tstamp 60A98727))
    (comp (ref R4)
      (value 470)
      (footprint Resistor_THT:R_Axial_DIN0207_L6.3mm_D2.5mm_P10.16mm_Horizontal)
      (datasheet ~)
      (libsource (lib Device) (part R) (description Resistor))
      (sheetpath (names /) (tstamps /))
      (tstamp 60ACAD73))
    (comp (ref R6)
      (value 470)
      (footprint Resistor_THT:R_Axial_DIN0207_L6.3mm_D2.5mm_P10.16mm_Horizontal)
      (datasheet ~)
      (libsource (lib Device) (part R) (description Resistor))
      (sheetpath (names /) (tstamps /))
      (tstamp 60ACB54D))
    (comp (ref R5)
      (value 470)
      (footprint Resistor_THT:R_Axial_DIN0207_L6.3mm_D2.5mm_P10.16mm_Horizontal)
      (datasheet ~)
      (libsource (lib Device) (part R) (description Resistor))
      (sheetpath (names /) (tstamps /))
      (tstamp 60ACB9D1))
    (comp (ref R7)
      (value 470)
      (footprint Resistor_THT:R_Axial_DIN0207_L6.3mm_D2.5mm_P10.16mm_Horizontal)
      (datasheet ~)
      (libsource (lib Device) (part R) (description Resistor))
      (sheetpath (names /) (tstamps /))
      (tstamp 60ACBF09))
    (comp (ref U2)
      (value MH-Z19C)
      (footprint AirQualityPCB:MH-Z19)
      (libsource (lib AirQuality) (part MH-Z19C) (description ""))
      (sheetpath (names /) (tstamps /))
      (tstamp 60B44C00))
    (comp (ref U4)
      (value MQ-135)
      (footprint Sensor:MQ-6)
      (datasheet https://www.winsen-sensor.com/d/files/semiconductor/mq-6.pdf)
      (libsource (lib Sensor_Gas) (part MQ-6) (description "Semiconductor Sensor for Flammable Gas"))
      (sheetpath (names /) (tstamps /))
      (tstamp 60999364))
    (comp (ref RV1)
      (value 47k)
      (footprint Potentiometer_THT:Potentiometer_Bourns_3296W_Vertical)
      (datasheet ~)
      (libsource (lib Device) (part R_POT_TRIM) (description Trim-potentiometer))
      (sheetpath (names /) (tstamps /))
      (tstamp 609A973C))
    (comp (ref J2)
      (value Conn_02x05_Odd_Even)
      (footprint Connector_PinHeader_2.54mm:PinHeader_2x05_P2.54mm_Vertical)
      (datasheet ~)
      (libsource (lib Connector_Generic) (part Conn_02x05_Odd_Even) (description "Generic connector, double row, 02x05, odd/even pin numbering scheme (row 1 odd numbers, row 2 even numbers), script generated (kicad-library-utils/schlib/autogen/connector/)"))
      (sheetpath (names /) (tstamps /))
      (tstamp 609E4F9F))
    (comp (ref JP2)
      (value Jumper_NO_Small)
      (footprint Connector_PinHeader_2.54mm:PinHeader_1x02_P2.54mm_Vertical)
      (datasheet ~)
      (libsource (lib Device) (part Jumper_NO_Small) (description "Jumper, normally open, small symbol"))
      (sheetpath (names /) (tstamps /))
      (tstamp 609AF437))
    (comp (ref JP1)
      (value Jumper_NO_Small)
      (footprint Connector_PinHeader_2.54mm:PinHeader_1x02_P2.54mm_Vertical)
      (datasheet ~)
      (libsource (lib Device) (part Jumper_NO_Small) (description "Jumper, normally open, small symbol"))
      (sheetpath (names /) (tstamps /))
      (tstamp 609CFD2E))
    (comp (ref D1)
      (value 1N4003)
      (footprint Diode_THT:D_DO-41_SOD81_P10.16mm_Horizontal)
      (datasheet http://www.vishay.com/docs/88503/1n4001.pdf)
      (libsource (lib Diode) (part 1N4003) (description "200V 1A General Purpose Rectifier Diode, DO-41"))
      (sheetpath (names /) (tstamps /))
      (tstamp 60A19392))
    (comp (ref Q1)
      (value BC558)
      (footprint Package_TO_SOT_THT:TO-92_Inline)
      (datasheet https://www.onsemi.com/pub/Collateral/BC556BTA-D.pdf)
      (libsource (lib Transistor_BJT) (part BC558) (description "0.1A Ic, 30V Vce, PNP Small Signal Transistor, TO-92"))
      (sheetpath (names /) (tstamps /))
      (tstamp 610111A9))
    (comp (ref C5)
      (value 100nF)
      (footprint Capacitor_THT:C_Disc_D4.3mm_W1.9mm_P5.00mm)
      (datasheet ~)
      (libsource (lib Device) (part C) (description "Unpolarized capacitor"))
      (sheetpath (names /) (tstamps /))
      (tstamp 611A1F4A)))
  (libparts
    (libpart (lib AirQuality) (part MH-Z19C)
      (fields
        (field (name Reference) U)
        (field (name Value) MH-Z19C))
      (pins
        (pin (num 1) (name NC) (type NotConnected))
        (pin (num 2) (name RX) (type input))
        (pin (num 3) (name TX) (type output))
        (pin (num 4) (name NC) (type NotConnected))
        (pin (num 5) (name HD) (type unspc))
        (pin (num 6) (name Vin) (type power_in))
        (pin (num 7) (name GND) (type power_in))
        (pin (num 8) (name NC) (type NotConnected))
        (pin (num 9) (name PWM) (type unspc))))
    (libpart (lib Connector_Generic) (part Conn_01x02)
      (description "Generic connector, single row, 01x02, script generated (kicad-library-utils/schlib/autogen/connector/)")
      (docs ~)
      (footprints
        (fp Connector*:*_1x??_*))
      (fields
        (field (name Reference) J)
        (field (name Value) Conn_01x02))
      (pins
        (pin (num 1) (name Pin_1) (type passive))
        (pin (num 2) (name Pin_2) (type passive))))
    (libpart (lib Connector_Generic) (part Conn_01x04)
      (description "Generic connector, single row, 01x04, script generated (kicad-library-utils/schlib/autogen/connector/)")
      (docs ~)
      (footprints
        (fp Connector*:*_1x??_*))
      (fields
        (field (name Reference) J)
        (field (name Value) Conn_01x04))
      (pins
        (pin (num 1) (name Pin_1) (type passive))
        (pin (num 2) (name Pin_2) (type passive))
        (pin (num 3) (name Pin_3) (type passive))
        (pin (num 4) (name Pin_4) (type passive))))
    (libpart (lib Connector_Generic) (part Conn_01x15)
      (description "Generic connector, single row, 01x15, script generated (kicad-library-utils/schlib/autogen/connector/)")
      (docs ~)
      (footprints
        (fp Connector*:*_1x??_*))
      (fields
        (field (name Reference) J)
        (field (name Value) Conn_01x15))
      (pins
        (pin (num 1) (name Pin_1) (type passive))
        (pin (num 2) (name Pin_2) (type passive))
        (pin (num 3) (name Pin_3) (type passive))
        (pin (num 4) (name Pin_4) (type passive))
        (pin (num 5) (name Pin_5) (type passive))
        (pin (num 6) (name Pin_6) (type passive))
        (pin (num 7) (name Pin_7) (type passive))
        (pin (num 8) (name Pin_8) (type passive))
        (pin (num 9) (name Pin_9) (type passive))
        (pin (num 10) (name Pin_10) (type passive))
        (pin (num 11) (name Pin_11) (type passive))
        (pin (num 12) (name Pin_12) (type passive))
        (pin (num 13) (name Pin_13) (type passive))
        (pin (num 14) (name Pin_14) (type passive))
        (pin (num 15) (name Pin_15) (type passive))))
    (libpart (lib Connector_Generic) (part Conn_02x05_Odd_Even)
      (description "Generic connector, double row, 02x05, odd/even pin numbering scheme (row 1 odd numbers, row 2 even numbers), script generated (kicad-library-utils/schlib/autogen/connector/)")
      (docs ~)
      (footprints
        (fp Connector*:*_2x??_*))
      (fields
        (field (name Reference) J)
        (field (name Value) Conn_02x05_Odd_Even))
      (pins
        (pin (num 1) (name Pin_1) (type passive))
        (pin (num 2) (name Pin_2) (type passive))
        (pin (num 3) (name Pin_3) (type passive))
        (pin (num 4) (name Pin_4) (type passive))
        (pin (num 5) (name Pin_5) (type passive))
        (pin (num 6) (name Pin_6) (type passive))
        (pin (num 7) (name Pin_7) (type passive))
        (pin (num 8) (name Pin_8) (type passive))
        (pin (num 9) (name Pin_9) (type passive))
        (pin (num 10) (name Pin_10) (type passive))))
    (libpart (lib Device) (part C)
      (description "Unpolarized capacitor")
      (docs ~)
      (footprints
        (fp C_*))
      (fields
        (field (name Reference) C)
        (field (name Value) C))
      (pins
        (pin (num 1) (name ~) (type passive))
        (pin (num 2) (name ~) (type passive))))
    (libpart (lib Device) (part Jumper_NO_Small)
      (description "Jumper, normally open, small symbol")
      (docs ~)
      (footprints
        (fp SolderJumper*Open*)
        (fp Jumper*)
        (fp TestPoint*2Pads*)
        (fp TestPoint*Bridge*))
      (fields
        (field (name Reference) JP)
        (field (name Value) Jumper_NO_Small))
      (pins
        (pin (num 1) (name 1) (type passive))
        (pin (num 2) (name 2) (type passive))))
    (libpart (lib Device) (part R)
      (description Resistor)
      (docs ~)
      (footprints
        (fp R_*))
      (fields
        (field (name Reference) R)
        (field (name Value) R))
      (pins
        (pin (num 1) (name ~) (type passive))
        (pin (num 2) (name ~) (type passive))))
    (libpart (lib Device) (part R_POT_TRIM)
      (description Trim-potentiometer)
      (docs ~)
      (footprints
        (fp Potentiometer*))
      (fields
        (field (name Reference) RV)
        (field (name Value) R_POT_TRIM))
      (pins
        (pin (num 1) (name 1) (type passive))
        (pin (num 2) (name 2) (type passive))
        (pin (num 3) (name 3) (type passive))))
    (libpart (lib Diode) (part 1N4001)
      (aliases
        (alias 1N4002)
        (alias 1N4003)
        (alias 1N4004)
        (alias 1N4005)
        (alias 1N4006)
        (alias 1N4007)
        (alias BA157)
        (alias BA158)
        (alias BA159))
      (description "50V 1A General Purpose Rectifier Diode, DO-41")
      (docs http://www.vishay.com/docs/88503/1n4001.pdf)
      (footprints
        (fp D*DO?41*))
      (fields
        (field (name Reference) D)
        (field (name Value) 1N4001)
        (field (name Footprint) Diode_THT:D_DO-41_SOD81_P10.16mm_Horizontal))
      (pins
        (pin (num 1) (name K) (type passive))
        (pin (num 2) (name A) (type passive))))
    (libpart (lib Lolin-NodeMCU-ESP8266) (part "NodeMCU_1.0_(ESP-12E)")
      (fields
        (field (name Reference) U)
        (field (name Value) "NodeMCU_1.0_(ESP-12E)"))
      (pins
        (pin (num 1) (name "A0(ADC0)") (type input))
        (pin (num 2) (name GND) (type power_in))
        (pin (num 3) (name VU) (type power_out))
        (pin (num 4) (name "SD3(GPIO10)") (type BiDi))
        (pin (num 5) (name "SD2(GPIO9)") (type BiDi))
        (pin (num 6) (name "SD1(MOSI)") (type BiDi))
        (pin (num 7) (name "CMD(CS)") (type BiDi))
        (pin (num 8) (name "SDO(MISO)") (type BiDi))
        (pin (num 9) (name "CLK(SCLK)") (type BiDi))
        (pin (num 10) (name GND) (type input))
        (pin (num 11) (name 3.3V) (type power_out))
        (pin (num 12) (name EN) (type input))
        (pin (num 13) (name RST) (type input))
        (pin (num 14) (name GND) (type power_in))
        (pin (num 15) (name VIN) (type power_in))
        (pin (num 16) (name 3.3V) (type power_out))
        (pin (num 17) (name GND) (type power_in))
        (pin (num 18) (name "TX(GPIO1)") (type BiDi))
        (pin (num 19) (name "RX(DPIO3)") (type BiDi))
        (pin (num 20) (name "D8(GPIO15)") (type BiDi))
        (pin (num 21) (name "D7(GPIO13)") (type BiDi))
        (pin (num 22) (name "D6(GPIO12)") (type BiDi))
        (pin (num 23) (name "D5(GPIO14)") (type BiDi))
        (pin (num 24) (name GND) (type power_in))
        (pin (num 25) (name 3.3V) (type power_out))
        (pin (num 26) (name "D4(GPIO2)") (type BiDi))
        (pin (num 27) (name "D3(GPIO0)") (type BiDi))
        (pin (num 28) (name "D2(GPIO4)") (type BiDi))
        (pin (num 29) (name "D1(GPIO5)") (type BiDi))
        (pin (num 30) (name "D0(GPIO16)") (type BiDi))))
    (libpart (lib Sensor) (part DHT11)
      (aliases
        (alias CHT11))
      (description "Temperature and humidity module")
      (docs http://akizukidenshi.com/download/ds/aosong/DHT11.pdf)
      (footprints
        (fp Aosong*DHT11*5.5x12.0*P2.54mm*))
      (fields
        (field (name Reference) U)
        (field (name Value) DHT11)
        (field (name Footprint) Sensor:Aosong_DHT11_5.5x12.0_P2.54mm))
      (pins
        (pin (num 1) (name VCC) (type power_in))
        (pin (num 2) (name IO) (type BiDi))
        (pin (num 3) (name NC) (type NotConnected))
        (pin (num 4) (name GND) (type power_in))))
    (libpart (lib Sensor_Gas) (part MQ-6)
      (description "Semiconductor Sensor for Flammable Gas")
      (docs https://www.winsen-sensor.com/d/files/semiconductor/mq-6.pdf)
      (footprints
        (fp *MQ*6*))
      (fields
        (field (name Reference) U)
        (field (name Value) MQ-6)
        (field (name Footprint) Sensor:MQ-6))
      (pins
        (pin (num 1) (name B1) (type passive))
        (pin (num 2) (name VH+) (type power_in))
        (pin (num 3) (name B2) (type passive))
        (pin (num 4) (name A2) (type passive))
        (pin (num 5) (name VH-) (type power_in))
        (pin (num 6) (name A1) (type passive))))
    (libpart (lib Transistor_BJT) (part BC557)
      (aliases
        (alias BC556)
        (alias BC558)
        (alias BC559)
        (alias BC560)
        (alias BC327)
        (alias BC328))
      (description "0.1A Ic, 45V Vce, PNP Small Signal Transistor, TO-92")
      (docs https://www.onsemi.com/pub/Collateral/BC556BTA-D.pdf)
      (footprints
        (fp TO?92*))
      (fields
        (field (name Reference) Q)
        (field (name Value) BC557)
        (field (name Footprint) Package_TO_SOT_THT:TO-92_Inline))
      (pins
        (pin (num 1) (name C) (type passive))
        (pin (num 2) (name B) (type input))
        (pin (num 3) (name E) (type passive)))))
  (libraries
    (library (logical AirQuality)
      (uri /home/leocorzi/Desktop/AirQualityPCB/AirQuality.lib))
    (library (logical Connector_Generic)
      (uri /usr/share/kicad/library/Connector_Generic.lib))
    (library (logical Device)
      (uri /usr/share/kicad/library/Device.lib))
    (library (logical Diode)
      (uri /usr/share/kicad/library/Diode.lib))
    (library (logical Lolin-NodeMCU-ESP8266)
      (uri /home/leocorzi/Desktop/AirQualityPCB/Lolin-NodeMCU-ESP8266.lib))
    (library (logical Sensor)
      (uri /usr/share/kicad/library/Sensor.lib))
    (library (logical Sensor_Gas)
      (uri /usr/share/kicad/library/Sensor_Gas.lib))
    (library (logical Transistor_BJT)
      (uri /usr/share/kicad/library/Transistor_BJT.lib)))
  (nets
    (net (code 1) (name /BOT0)
      (node (ref R3) (pin 1))
      (node (ref J1) (pin 2))
      (node (ref J7) (pin 1))
      (node (ref U1) (pin 30)))
    (net (code 2) (name "Net-(J2-Pad6)")
      (node (ref R5) (pin 2))
      (node (ref J2) (pin 6)))
    (net (code 3) (name "Net-(J2-Pad4)")
      (node (ref R6) (pin 2))
      (node (ref J2) (pin 4)))
    (net (code 4) (name /LED2)
      (node (ref R6) (pin 1))
      (node (ref J7) (pin 12))
      (node (ref U1) (pin 19)))
    (net (code 5) (name "Net-(J2-Pad2)")
      (node (ref R4) (pin 2))
      (node (ref J2) (pin 2)))
    (net (code 6) (name /LED3)
      (node (ref J7) (pin 13))
      (node (ref U1) (pin 18))
      (node (ref R4) (pin 1)))
    (net (code 7) (name /BOT2)
      (node (ref J3) (pin 4))
      (node (ref U1) (pin 4))
      (node (ref J1) (pin 4))
      (node (ref R1) (pin 1)))
    (net (code 8) (name /BOT1)
      (node (ref J1) (pin 3))
      (node (ref U1) (pin 5))
      (node (ref R2) (pin 1))
      (node (ref J3) (pin 5)))
    (net (code 9) (name /LED1)
      (node (ref J7) (pin 11))
      (node (ref U1) (pin 20))
      (node (ref R5) (pin 1)))
    (net (code 10) (name /LED0)
      (node (ref U1) (pin 21))
      (node (ref R7) (pin 1))
      (node (ref J7) (pin 10)))
    (net (code 11) (name "Net-(U2-Pad8)")
      (node (ref U2) (pin 8)))
    (net (code 12) (name "Net-(J5-Pad1)")
      (node (ref J5) (pin 1))
      (node (ref U2) (pin 5)))
    (net (code 13) (name "Net-(U2-Pad4)")
      (node (ref U2) (pin 4)))
    (net (code 14) (name "Net-(U2-Pad1)")
      (node (ref U2) (pin 1)))
    (net (code 15) (name "Net-(J2-Pad8)")
      (node (ref J2) (pin 8))
      (node (ref R7) (pin 2)))
    (net (code 16) (name /D4)
      (node (ref U1) (pin 26))
      (node (ref J7) (pin 5))
      (node (ref R8) (pin 2)))
    (net (code 17) (name +5V)
      (node (ref U3) (pin 1))
      (node (ref JP1) (pin 1))
      (node (ref J8) (pin 1))
      (node (ref J3) (pin 3))
      (node (ref C2) (pin 1))
      (node (ref U1) (pin 3))
      (node (ref Q1) (pin 3))
      (node (ref C5) (pin 1))
      (node (ref C4) (pin 1))
      (node (ref J10) (pin 1))
      (node (ref C3) (pin 1))
      (node (ref J9) (pin 1))
      (node (ref U2) (pin 6)))
    (net (code 18) (name "Net-(Q1-Pad2)")
      (node (ref Q1) (pin 2))
      (node (ref R8) (pin 1)))
    (net (code 19) (name /D3)
      (node (ref U1) (pin 27))
      (node (ref J7) (pin 4))
      (node (ref R9) (pin 2))
      (node (ref U3) (pin 2)))
    (net (code 20) (name "Net-(J4-Pad1)")
      (node (ref U2) (pin 9))
      (node (ref J4) (pin 1))
      (node (ref J4) (pin 2)))
    (net (code 21) (name +3V3)
      (node (ref J7) (pin 15))
      (node (ref J7) (pin 6))
      (node (ref U1) (pin 11))
      (node (ref U1) (pin 16))
      (node (ref U1) (pin 25))
      (node (ref J3) (pin 11))
      (node (ref R9) (pin 1))
      (node (ref C1) (pin 1))
      (node (ref J1) (pin 1)))
    (net (code 22) (name "Net-(JP1-Pad2)")
      (node (ref U4) (pin 4))
      (node (ref JP1) (pin 2))
      (node (ref U4) (pin 6))
      (node (ref U4) (pin 2)))
    (net (code 23) (name /A0)
      (node (ref JP2) (pin 2))
      (node (ref J3) (pin 1))
      (node (ref U1) (pin 1)))
    (net (code 24) (name "Net-(D1-Pad1)")
      (node (ref D1) (pin 1))
      (node (ref J6) (pin 1))
      (node (ref Q1) (pin 1)))
    (net (code 25) (name "Net-(JP2-Pad1)")
      (node (ref U4) (pin 3))
      (node (ref U4) (pin 1))
      (node (ref RV1) (pin 1))
      (node (ref RV1) (pin 2))
      (node (ref JP2) (pin 1)))
    (net (code 26) (name GND)
      (node (ref R1) (pin 2))
      (node (ref C3) (pin 2))
      (node (ref R2) (pin 2))
      (node (ref R3) (pin 2))
      (node (ref J8) (pin 4))
      (node (ref J2) (pin 9))
      (node (ref J10) (pin 4))
      (node (ref U2) (pin 7))
      (node (ref J9) (pin 4))
      (node (ref J5) (pin 2))
      (node (ref J2) (pin 3))
      (node (ref C4) (pin 2))
      (node (ref D1) (pin 2))
      (node (ref J6) (pin 2))
      (node (ref C1) (pin 2))
      (node (ref U1) (pin 14))
      (node (ref U1) (pin 17))
      (node (ref U1) (pin 2))
      (node (ref U1) (pin 24))
      (node (ref J2) (pin 7))
      (node (ref C5) (pin 2))
      (node (ref C2) (pin 2))
      (node (ref J3) (pin 10))
      (node (ref J3) (pin 14))
      (node (ref J3) (pin 2))
      (node (ref RV1) (pin 3))
      (node (ref U3) (pin 4))
      (node (ref J2) (pin 5))
      (node (ref J2) (pin 10))
      (node (ref J7) (pin 7))
      (node (ref J2) (pin 1))
      (node (ref J7) (pin 14))
      (node (ref U1) (pin 10))
      (node (ref U4) (pin 5)))
    (net (code 27) (name "Net-(J3-Pad7)")
      (node (ref U1) (pin 7))
      (node (ref J3) (pin 7)))
    (net (code 28) (name "Net-(J3-Pad9)")
      (node (ref J3) (pin 9))
      (node (ref U1) (pin 9)))
    (net (code 29) (name "Net-(J3-Pad8)")
      (node (ref J3) (pin 8))
      (node (ref U1) (pin 8)))
    (net (code 30) (name "Net-(J3-Pad6)")
      (node (ref U1) (pin 6))
      (node (ref J3) (pin 6)))
    (net (code 31) (name "Net-(J3-Pad12)")
      (node (ref J3) (pin 12))
      (node (ref U1) (pin 12)))
    (net (code 32) (name "Net-(J3-Pad15)")
      (node (ref J3) (pin 15))
      (node (ref U1) (pin 15)))
    (net (code 33) (name "Net-(J3-Pad13)")
      (node (ref J3) (pin 13))
      (node (ref U1) (pin 13)))
    (net (code 34) (name "Net-(U3-Pad3)")
      (node (ref U3) (pin 3)))
    (net (code 35) (name /SCL)
      (node (ref J9) (pin 3))
      (node (ref J8) (pin 3))
      (node (ref U1) (pin 29))
      (node (ref J10) (pin 3))
      (node (ref J7) (pin 2)))
    (net (code 36) (name /SDA)
      (node (ref J8) (pin 2))
      (node (ref J9) (pin 2))
      (node (ref U1) (pin 28))
      (node (ref J10) (pin 2))
      (node (ref J7) (pin 3)))
    (net (code 37) (name /RX)
      (node (ref U2) (pin 2))
      (node (ref U1) (pin 22))
      (node (ref J7) (pin 9)))
    (net (code 38) (name /TX)
      (node (ref U2) (pin 3))
      (node (ref U1) (pin 23))
      (node (ref J7) (pin 8)))))