%TF.GenerationSoftware,KiCad,Pcbnew,5.1.9+dfsg1-1*%
%TF.CreationDate,2021-09-09T17:58:47-03:00*%
%TF.ProjectId,AirQualityPCB,41697251-7561-46c6-9974-795043422e6b,2*%
%TF.SameCoordinates,Original*%
%TF.FileFunction,Legend,Top*%
%TF.FilePolarity,Positive*%
%FSLAX46Y46*%
G04 Gerber Fmt 4.6, Leading zero omitted, Abs format (unit mm)*
G04 Created by KiCad (PCBNEW 5.1.9+dfsg1-1) date 2021-09-09 17:58:47*
%MOMM*%
%LPD*%
G01*
G04 APERTURE LIST*
%ADD10C,0.120000*%
%ADD11C,0.150000*%
%ADD12C,1.500000*%
%ADD13C,1.600000*%
%ADD14R,2.200000X2.200000*%
%ADD15O,2.200000X2.200000*%
%ADD16C,2.200000*%
%ADD17O,1.600000X1.600000*%
%ADD18O,1.700000X1.700000*%
%ADD19R,1.700000X1.700000*%
%ADD20C,1.800000*%
%ADD21R,1.600000X1.600000*%
%ADD22C,2.000000*%
%ADD23R,2.000000X2.000000*%
%ADD24O,1.500000X1.050000*%
%ADD25R,1.500000X1.050000*%
G04 APERTURE END LIST*
D10*
%TO.C,REF\u002A\u002A*%
X181290000Y-119380000D02*
G75*
G03*
X181290000Y-119380000I-950000J0D01*
G01*
%TO.C,C5*%
X174950000Y-112815000D02*
X174950000Y-112830000D01*
X174950000Y-110690000D02*
X174950000Y-110705000D01*
X170410000Y-112815000D02*
X170410000Y-112830000D01*
X170410000Y-110690000D02*
X170410000Y-110705000D01*
X170410000Y-112830000D02*
X174950000Y-112830000D01*
X170410000Y-110690000D02*
X174950000Y-110690000D01*
%TO.C,REF\u002A\u002A*%
X108900000Y-87630000D02*
G75*
G03*
X108900000Y-87630000I-950000J0D01*
G01*
X129220000Y-68580000D02*
G75*
G03*
X129220000Y-68580000I-950000J0D01*
G01*
X131125000Y-91440000D02*
G75*
G03*
X131125000Y-91440000I-950000J0D01*
G01*
%TO.C,D1*%
X172900000Y-108150000D02*
X172900000Y-105210000D01*
X172900000Y-105210000D02*
X167460000Y-105210000D01*
X167460000Y-105210000D02*
X167460000Y-108150000D01*
X167460000Y-108150000D02*
X172900000Y-108150000D01*
X173920000Y-106680000D02*
X172900000Y-106680000D01*
X166440000Y-106680000D02*
X167460000Y-106680000D01*
X172000000Y-108150000D02*
X172000000Y-105210000D01*
X171880000Y-108150000D02*
X171880000Y-105210000D01*
X172120000Y-108150000D02*
X172120000Y-105210000D01*
%TO.C,REF\u002A\u002A*%
X114615000Y-109220000D02*
G75*
G03*
X114615000Y-109220000I-950000J0D01*
G01*
X114615000Y-104775000D02*
G75*
G03*
X114615000Y-104775000I-950000J0D01*
G01*
X174940000Y-76200000D02*
G75*
G03*
X174940000Y-76200000I-950000J0D01*
G01*
X160970000Y-80010000D02*
G75*
G03*
X160970000Y-80010000I-950000J0D01*
G01*
X138110000Y-78105000D02*
G75*
G03*
X138110000Y-78105000I-950000J0D01*
G01*
X129220000Y-76200000D02*
G75*
G03*
X129220000Y-76200000I-950000J0D01*
G01*
X140650000Y-76200000D02*
G75*
G03*
X140650000Y-76200000I-950000J0D01*
G01*
X101915000Y-96520000D02*
G75*
G03*
X101915000Y-96520000I-950000J0D01*
G01*
X150175000Y-119380000D02*
G75*
G03*
X150175000Y-119380000I-950000J0D01*
G01*
X128585000Y-111760000D02*
G75*
G03*
X128585000Y-111760000I-950000J0D01*
G01*
X140650000Y-99060000D02*
G75*
G03*
X140650000Y-99060000I-950000J0D01*
G01*
X147000000Y-99060000D02*
G75*
G03*
X147000000Y-99060000I-950000J0D01*
G01*
X150175000Y-96520000D02*
G75*
G03*
X150175000Y-96520000I-950000J0D01*
G01*
X164145000Y-99060000D02*
G75*
G03*
X164145000Y-99060000I-950000J0D01*
G01*
X178115000Y-91440000D02*
G75*
G03*
X178115000Y-91440000I-950000J0D01*
G01*
X172400000Y-99060000D02*
G75*
G03*
X172400000Y-99060000I-950000J0D01*
G01*
%TO.C,R3*%
X104140000Y-105640000D02*
X104140000Y-104870000D01*
X104140000Y-97560000D02*
X104140000Y-98330000D01*
X105510000Y-104870000D02*
X105510000Y-98330000D01*
X102770000Y-104870000D02*
X105510000Y-104870000D01*
X102770000Y-98330000D02*
X102770000Y-104870000D01*
X105510000Y-98330000D02*
X102770000Y-98330000D01*
%TO.C,C1*%
X108150000Y-111450000D02*
X108150000Y-106910000D01*
X110290000Y-111450000D02*
X110290000Y-106910000D01*
X108150000Y-111450000D02*
X108165000Y-111450000D01*
X110275000Y-111450000D02*
X110290000Y-111450000D01*
X108150000Y-106910000D02*
X108165000Y-106910000D01*
X110275000Y-106910000D02*
X110290000Y-106910000D01*
%TO.C,C2*%
X112815000Y-82780000D02*
X112830000Y-82780000D01*
X110690000Y-82780000D02*
X110705000Y-82780000D01*
X112815000Y-87320000D02*
X112830000Y-87320000D01*
X110690000Y-87320000D02*
X110705000Y-87320000D01*
X112830000Y-87320000D02*
X112830000Y-82780000D01*
X110690000Y-87320000D02*
X110690000Y-82780000D01*
%TO.C,C3*%
X138215000Y-63730000D02*
X138230000Y-63730000D01*
X136090000Y-63730000D02*
X136105000Y-63730000D01*
X138215000Y-68270000D02*
X138230000Y-68270000D01*
X136090000Y-68270000D02*
X136105000Y-68270000D01*
X138230000Y-68270000D02*
X138230000Y-63730000D01*
X136090000Y-68270000D02*
X136090000Y-63730000D01*
%TO.C,C4*%
X173760000Y-129340000D02*
X169220000Y-129340000D01*
X173760000Y-127200000D02*
X169220000Y-127200000D01*
X173760000Y-129340000D02*
X173760000Y-129325000D01*
X173760000Y-127215000D02*
X173760000Y-127200000D01*
X169220000Y-129340000D02*
X169220000Y-129325000D01*
X169220000Y-127215000D02*
X169220000Y-127200000D01*
%TO.C,J1*%
X99120000Y-100390000D02*
X97790000Y-100390000D01*
X99120000Y-99060000D02*
X99120000Y-100390000D01*
X99120000Y-97790000D02*
X96460000Y-97790000D01*
X96460000Y-97790000D02*
X96460000Y-90110000D01*
X99120000Y-97790000D02*
X99120000Y-90110000D01*
X99120000Y-90110000D02*
X96460000Y-90110000D01*
%TO.C,J3*%
X115510000Y-120710000D02*
X118170000Y-120710000D01*
X115510000Y-85090000D02*
X115510000Y-120710000D01*
X118170000Y-85090000D02*
X118170000Y-120710000D01*
X115510000Y-85090000D02*
X118170000Y-85090000D01*
X115510000Y-83820000D02*
X115510000Y-82490000D01*
X115510000Y-82490000D02*
X116840000Y-82490000D01*
%TO.C,J4*%
X134680000Y-58480000D02*
X133350000Y-58480000D01*
X134680000Y-57150000D02*
X134680000Y-58480000D01*
X134680000Y-55880000D02*
X132020000Y-55880000D01*
X132020000Y-55880000D02*
X132020000Y-53280000D01*
X134680000Y-55880000D02*
X134680000Y-53280000D01*
X134680000Y-53280000D02*
X132020000Y-53280000D01*
%TO.C,J5*%
X178375000Y-66100000D02*
X181035000Y-66100000D01*
X178375000Y-63500000D02*
X178375000Y-66100000D01*
X181035000Y-63500000D02*
X181035000Y-66100000D01*
X178375000Y-63500000D02*
X181035000Y-63500000D01*
X178375000Y-62230000D02*
X178375000Y-60900000D01*
X178375000Y-60900000D02*
X179705000Y-60900000D01*
%TO.C,J6*%
X179010000Y-113090000D02*
X181670000Y-113090000D01*
X179010000Y-110490000D02*
X179010000Y-113090000D01*
X181670000Y-110490000D02*
X181670000Y-113090000D01*
X179010000Y-110490000D02*
X181670000Y-110490000D01*
X179010000Y-109220000D02*
X179010000Y-107890000D01*
X179010000Y-107890000D02*
X180340000Y-107890000D01*
%TO.C,J7*%
X158690000Y-82490000D02*
X160020000Y-82490000D01*
X158690000Y-83820000D02*
X158690000Y-82490000D01*
X158690000Y-85090000D02*
X161350000Y-85090000D01*
X161350000Y-85090000D02*
X161350000Y-120710000D01*
X158690000Y-85090000D02*
X158690000Y-120710000D01*
X158690000Y-120710000D02*
X161350000Y-120710000D01*
%TO.C,J8*%
X168970000Y-82490000D02*
X166310000Y-82490000D01*
X168970000Y-90170000D02*
X168970000Y-82490000D01*
X166310000Y-90170000D02*
X166310000Y-82490000D01*
X168970000Y-90170000D02*
X166310000Y-90170000D01*
X168970000Y-91440000D02*
X168970000Y-92770000D01*
X168970000Y-92770000D02*
X167640000Y-92770000D01*
%TO.C,J9*%
X181670000Y-92770000D02*
X180340000Y-92770000D01*
X181670000Y-91440000D02*
X181670000Y-92770000D01*
X181670000Y-90170000D02*
X179010000Y-90170000D01*
X179010000Y-90170000D02*
X179010000Y-82490000D01*
X181670000Y-90170000D02*
X181670000Y-82490000D01*
X181670000Y-82490000D02*
X179010000Y-82490000D01*
%TO.C,J10*%
X175320000Y-82490000D02*
X172660000Y-82490000D01*
X175320000Y-90170000D02*
X175320000Y-82490000D01*
X172660000Y-90170000D02*
X172660000Y-82490000D01*
X175320000Y-90170000D02*
X172660000Y-90170000D01*
X175320000Y-91440000D02*
X175320000Y-92770000D01*
X175320000Y-92770000D02*
X173990000Y-92770000D01*
%TO.C,R1*%
X111760000Y-100560000D02*
X111760000Y-99790000D01*
X111760000Y-92480000D02*
X111760000Y-93250000D01*
X113130000Y-99790000D02*
X113130000Y-93250000D01*
X110390000Y-99790000D02*
X113130000Y-99790000D01*
X110390000Y-93250000D02*
X110390000Y-99790000D01*
X113130000Y-93250000D02*
X110390000Y-93250000D01*
%TO.C,R2*%
X109320000Y-95790000D02*
X106580000Y-95790000D01*
X106580000Y-95790000D02*
X106580000Y-102330000D01*
X106580000Y-102330000D02*
X109320000Y-102330000D01*
X109320000Y-102330000D02*
X109320000Y-95790000D01*
X107950000Y-95020000D02*
X107950000Y-95790000D01*
X107950000Y-103100000D02*
X107950000Y-102330000D01*
%TO.C,R4*%
X133450000Y-109760000D02*
X130710000Y-109760000D01*
X130710000Y-109760000D02*
X130710000Y-116300000D01*
X130710000Y-116300000D02*
X133450000Y-116300000D01*
X133450000Y-116300000D02*
X133450000Y-109760000D01*
X132080000Y-108990000D02*
X132080000Y-109760000D01*
X132080000Y-117070000D02*
X132080000Y-116300000D01*
%TO.C,R5*%
X141070000Y-109760000D02*
X138330000Y-109760000D01*
X138330000Y-109760000D02*
X138330000Y-116300000D01*
X138330000Y-116300000D02*
X141070000Y-116300000D01*
X141070000Y-116300000D02*
X141070000Y-109760000D01*
X139700000Y-108990000D02*
X139700000Y-109760000D01*
X139700000Y-117070000D02*
X139700000Y-116300000D01*
%TO.C,R6*%
X135890000Y-117070000D02*
X135890000Y-116300000D01*
X135890000Y-108990000D02*
X135890000Y-109760000D01*
X137260000Y-116300000D02*
X137260000Y-109760000D01*
X134520000Y-116300000D02*
X137260000Y-116300000D01*
X134520000Y-109760000D02*
X134520000Y-116300000D01*
X137260000Y-109760000D02*
X134520000Y-109760000D01*
%TO.C,R7*%
X144880000Y-109760000D02*
X142140000Y-109760000D01*
X142140000Y-109760000D02*
X142140000Y-116300000D01*
X142140000Y-116300000D02*
X144880000Y-116300000D01*
X144880000Y-116300000D02*
X144880000Y-109760000D01*
X143510000Y-108990000D02*
X143510000Y-109760000D01*
X143510000Y-117070000D02*
X143510000Y-116300000D01*
%TO.C,R8*%
X173450000Y-102970000D02*
X173450000Y-100230000D01*
X173450000Y-100230000D02*
X166910000Y-100230000D01*
X166910000Y-100230000D02*
X166910000Y-102970000D01*
X166910000Y-102970000D02*
X173450000Y-102970000D01*
X174220000Y-101600000D02*
X173450000Y-101600000D01*
X166140000Y-101600000D02*
X166910000Y-101600000D01*
%TO.C,R9*%
X174220000Y-116840000D02*
X173450000Y-116840000D01*
X166140000Y-116840000D02*
X166910000Y-116840000D01*
X173450000Y-115470000D02*
X166910000Y-115470000D01*
X173450000Y-118210000D02*
X173450000Y-115470000D01*
X166910000Y-118210000D02*
X173450000Y-118210000D01*
X166910000Y-115470000D02*
X166910000Y-118210000D01*
D11*
%TO.C,U1*%
X132430000Y-81775000D02*
X144430000Y-81775000D01*
X144430000Y-81775000D02*
X144430000Y-95775000D01*
X144430000Y-95775000D02*
X132430000Y-95775000D01*
X132430000Y-95775000D02*
X132430000Y-81775000D01*
X140970000Y-80645000D02*
X133350000Y-80645000D01*
X133350000Y-80645000D02*
X133350000Y-75565000D01*
X133350000Y-75565000D02*
X134620000Y-75565000D01*
X134620000Y-75565000D02*
X134620000Y-79375000D01*
X134620000Y-79375000D02*
X135890000Y-79375000D01*
X135890000Y-79375000D02*
X135890000Y-75565000D01*
X135890000Y-75565000D02*
X137160000Y-75565000D01*
X137160000Y-75565000D02*
X137160000Y-79375000D01*
X137160000Y-79375000D02*
X138430000Y-79375000D01*
X138430000Y-79375000D02*
X138430000Y-75565000D01*
X138430000Y-75565000D02*
X139700000Y-75565000D01*
X139700000Y-75565000D02*
X139700000Y-79375000D01*
X139700000Y-79375000D02*
X140970000Y-79375000D01*
X140970000Y-79375000D02*
X140970000Y-75565000D01*
X140970000Y-75565000D02*
X144780000Y-75565000D01*
X134620000Y-132715000D02*
X142240000Y-132715000D01*
X142240000Y-132715000D02*
X142240000Y-126365000D01*
X142240000Y-126365000D02*
X134620000Y-126365000D01*
X134620000Y-126365000D02*
X134620000Y-132715000D01*
X152926051Y-128905000D02*
G75*
G03*
X152926051Y-128905000I-1796051J0D01*
G01*
X127526051Y-128905000D02*
G75*
G03*
X127526051Y-128905000I-1796051J0D01*
G01*
X127526051Y-76835000D02*
G75*
G03*
X127526051Y-76835000I-1796051J0D01*
G01*
X152926051Y-76835000D02*
G75*
G03*
X152926051Y-76835000I-1796051J0D01*
G01*
X153680000Y-74275000D02*
X123680000Y-74275000D01*
X123680000Y-74275000D02*
X123180000Y-74275000D01*
X123180000Y-74275000D02*
X123180000Y-131275000D01*
X123180000Y-131275000D02*
X153680000Y-131275000D01*
X153680000Y-131275000D02*
X153680000Y-74275000D01*
D10*
%TO.C,U3*%
X176310000Y-120320000D02*
X176310000Y-126060000D01*
X176310000Y-126070000D02*
X164050000Y-126070000D01*
X164050000Y-126070000D02*
X164050000Y-120310000D01*
X164050000Y-120310000D02*
X176300000Y-120310000D01*
X176590000Y-120030000D02*
X174590000Y-120030000D01*
X176590000Y-120030000D02*
X176590000Y-121640000D01*
%TO.C,J2*%
X96460000Y-109795000D02*
X97790000Y-109795000D01*
X96460000Y-111125000D02*
X96460000Y-109795000D01*
X99060000Y-109795000D02*
X101660000Y-109795000D01*
X99060000Y-112395000D02*
X99060000Y-109795000D01*
X96460000Y-112395000D02*
X99060000Y-112395000D01*
X101660000Y-109795000D02*
X101660000Y-122615000D01*
X96460000Y-112395000D02*
X96460000Y-122615000D01*
X96460000Y-122615000D02*
X101660000Y-122615000D01*
%TO.C,RV1*%
X96530000Y-75125000D02*
X101600000Y-75125000D01*
X96530000Y-84895000D02*
X101600000Y-84895000D01*
X101600000Y-84895000D02*
X101600000Y-75125000D01*
X96530000Y-84895000D02*
X96530000Y-75125000D01*
%TO.C,U4*%
X116490000Y-63685000D02*
G75*
G03*
X116490000Y-63685000I-9625000J0D01*
G01*
%TO.C,JP1*%
X123250000Y-53280000D02*
X123250000Y-54610000D01*
X121920000Y-53280000D02*
X123250000Y-53280000D01*
X120650000Y-53280000D02*
X120650000Y-55940000D01*
X120650000Y-55940000D02*
X118050000Y-55940000D01*
X120650000Y-53280000D02*
X118050000Y-53280000D01*
X118050000Y-53280000D02*
X118050000Y-55940000D01*
%TO.C,JP2*%
X115510000Y-77530000D02*
X118170000Y-77530000D01*
X115510000Y-74930000D02*
X115510000Y-77530000D01*
X118170000Y-74930000D02*
X118170000Y-77530000D01*
X115510000Y-74930000D02*
X118170000Y-74930000D01*
X115510000Y-73660000D02*
X115510000Y-72330000D01*
X115510000Y-72330000D02*
X116840000Y-72330000D01*
%TO.C,Q1*%
X182190000Y-103400000D02*
X182190000Y-99800000D01*
X182178478Y-103438478D02*
G75*
G02*
X177740000Y-101600000I-1838478J1838478D01*
G01*
X182178478Y-99761522D02*
G75*
G03*
X177740000Y-101600000I-1838478J-1838478D01*
G01*
%TO.C,C5*%
D11*
X172513333Y-109917142D02*
X172465714Y-109964761D01*
X172322857Y-110012380D01*
X172227619Y-110012380D01*
X172084761Y-109964761D01*
X171989523Y-109869523D01*
X171941904Y-109774285D01*
X171894285Y-109583809D01*
X171894285Y-109440952D01*
X171941904Y-109250476D01*
X171989523Y-109155238D01*
X172084761Y-109060000D01*
X172227619Y-109012380D01*
X172322857Y-109012380D01*
X172465714Y-109060000D01*
X172513333Y-109107619D01*
X173418095Y-109012380D02*
X172941904Y-109012380D01*
X172894285Y-109488571D01*
X172941904Y-109440952D01*
X173037142Y-109393333D01*
X173275238Y-109393333D01*
X173370476Y-109440952D01*
X173418095Y-109488571D01*
X173465714Y-109583809D01*
X173465714Y-109821904D01*
X173418095Y-109917142D01*
X173370476Y-109964761D01*
X173275238Y-110012380D01*
X173037142Y-110012380D01*
X172941904Y-109964761D01*
X172894285Y-109917142D01*
%TO.C,D1*%
X169441904Y-109602380D02*
X169441904Y-108602380D01*
X169680000Y-108602380D01*
X169822857Y-108650000D01*
X169918095Y-108745238D01*
X169965714Y-108840476D01*
X170013333Y-109030952D01*
X170013333Y-109173809D01*
X169965714Y-109364285D01*
X169918095Y-109459523D01*
X169822857Y-109554761D01*
X169680000Y-109602380D01*
X169441904Y-109602380D01*
X170965714Y-109602380D02*
X170394285Y-109602380D01*
X170680000Y-109602380D02*
X170680000Y-108602380D01*
X170584761Y-108745238D01*
X170489523Y-108840476D01*
X170394285Y-108888095D01*
X174998095Y-109232380D02*
X174998095Y-108232380D01*
X175569523Y-109232380D02*
X175140952Y-108660952D01*
X175569523Y-108232380D02*
X174998095Y-108803809D01*
%TO.C,R3*%
X106962380Y-101766666D02*
X106486190Y-102100000D01*
X106962380Y-102338095D02*
X105962380Y-102338095D01*
X105962380Y-101957142D01*
X106010000Y-101861904D01*
X106057619Y-101814285D01*
X106152857Y-101766666D01*
X106295714Y-101766666D01*
X106390952Y-101814285D01*
X106438571Y-101861904D01*
X106486190Y-101957142D01*
X106486190Y-102338095D01*
X105962380Y-101433333D02*
X105962380Y-100814285D01*
X106343333Y-101147619D01*
X106343333Y-101004761D01*
X106390952Y-100909523D01*
X106438571Y-100861904D01*
X106533809Y-100814285D01*
X106771904Y-100814285D01*
X106867142Y-100861904D01*
X106914761Y-100909523D01*
X106962380Y-101004761D01*
X106962380Y-101290476D01*
X106914761Y-101385714D01*
X106867142Y-101433333D01*
%TO.C,C1*%
X107377142Y-109346666D02*
X107424761Y-109394285D01*
X107472380Y-109537142D01*
X107472380Y-109632380D01*
X107424761Y-109775238D01*
X107329523Y-109870476D01*
X107234285Y-109918095D01*
X107043809Y-109965714D01*
X106900952Y-109965714D01*
X106710476Y-109918095D01*
X106615238Y-109870476D01*
X106520000Y-109775238D01*
X106472380Y-109632380D01*
X106472380Y-109537142D01*
X106520000Y-109394285D01*
X106567619Y-109346666D01*
X107472380Y-108394285D02*
X107472380Y-108965714D01*
X107472380Y-108680000D02*
X106472380Y-108680000D01*
X106615238Y-108775238D01*
X106710476Y-108870476D01*
X106758095Y-108965714D01*
%TO.C,C3*%
X135317142Y-66166666D02*
X135364761Y-66214285D01*
X135412380Y-66357142D01*
X135412380Y-66452380D01*
X135364761Y-66595238D01*
X135269523Y-66690476D01*
X135174285Y-66738095D01*
X134983809Y-66785714D01*
X134840952Y-66785714D01*
X134650476Y-66738095D01*
X134555238Y-66690476D01*
X134460000Y-66595238D01*
X134412380Y-66452380D01*
X134412380Y-66357142D01*
X134460000Y-66214285D01*
X134507619Y-66166666D01*
X134412380Y-65833333D02*
X134412380Y-65214285D01*
X134793333Y-65547619D01*
X134793333Y-65404761D01*
X134840952Y-65309523D01*
X134888571Y-65261904D01*
X134983809Y-65214285D01*
X135221904Y-65214285D01*
X135317142Y-65261904D01*
X135364761Y-65309523D01*
X135412380Y-65404761D01*
X135412380Y-65690476D01*
X135364761Y-65785714D01*
X135317142Y-65833333D01*
%TO.C,C4*%
X171323333Y-130827142D02*
X171275714Y-130874761D01*
X171132857Y-130922380D01*
X171037619Y-130922380D01*
X170894761Y-130874761D01*
X170799523Y-130779523D01*
X170751904Y-130684285D01*
X170704285Y-130493809D01*
X170704285Y-130350952D01*
X170751904Y-130160476D01*
X170799523Y-130065238D01*
X170894761Y-129970000D01*
X171037619Y-129922380D01*
X171132857Y-129922380D01*
X171275714Y-129970000D01*
X171323333Y-130017619D01*
X172180476Y-130255714D02*
X172180476Y-130922380D01*
X171942380Y-129874761D02*
X171704285Y-130589047D01*
X172323333Y-130589047D01*
%TO.C,J1*%
X97456666Y-100842380D02*
X97456666Y-101556666D01*
X97409047Y-101699523D01*
X97313809Y-101794761D01*
X97170952Y-101842380D01*
X97075714Y-101842380D01*
X98456666Y-101842380D02*
X97885238Y-101842380D01*
X98170952Y-101842380D02*
X98170952Y-100842380D01*
X98075714Y-100985238D01*
X97980476Y-101080476D01*
X97885238Y-101128095D01*
%TO.C,J3*%
X116506666Y-80942380D02*
X116506666Y-81656666D01*
X116459047Y-81799523D01*
X116363809Y-81894761D01*
X116220952Y-81942380D01*
X116125714Y-81942380D01*
X116887619Y-80942380D02*
X117506666Y-80942380D01*
X117173333Y-81323333D01*
X117316190Y-81323333D01*
X117411428Y-81370952D01*
X117459047Y-81418571D01*
X117506666Y-81513809D01*
X117506666Y-81751904D01*
X117459047Y-81847142D01*
X117411428Y-81894761D01*
X117316190Y-81942380D01*
X117030476Y-81942380D01*
X116935238Y-81894761D01*
X116887619Y-81847142D01*
%TO.C,J4*%
X133016666Y-58932380D02*
X133016666Y-59646666D01*
X132969047Y-59789523D01*
X132873809Y-59884761D01*
X132730952Y-59932380D01*
X132635714Y-59932380D01*
X133921428Y-59265714D02*
X133921428Y-59932380D01*
X133683333Y-58884761D02*
X133445238Y-59599047D01*
X134064285Y-59599047D01*
%TO.C,J5*%
X179371666Y-59352380D02*
X179371666Y-60066666D01*
X179324047Y-60209523D01*
X179228809Y-60304761D01*
X179085952Y-60352380D01*
X178990714Y-60352380D01*
X180324047Y-59352380D02*
X179847857Y-59352380D01*
X179800238Y-59828571D01*
X179847857Y-59780952D01*
X179943095Y-59733333D01*
X180181190Y-59733333D01*
X180276428Y-59780952D01*
X180324047Y-59828571D01*
X180371666Y-59923809D01*
X180371666Y-60161904D01*
X180324047Y-60257142D01*
X180276428Y-60304761D01*
X180181190Y-60352380D01*
X179943095Y-60352380D01*
X179847857Y-60304761D01*
X179800238Y-60257142D01*
%TO.C,J6*%
X180006666Y-106342380D02*
X180006666Y-107056666D01*
X179959047Y-107199523D01*
X179863809Y-107294761D01*
X179720952Y-107342380D01*
X179625714Y-107342380D01*
X180911428Y-106342380D02*
X180720952Y-106342380D01*
X180625714Y-106390000D01*
X180578095Y-106437619D01*
X180482857Y-106580476D01*
X180435238Y-106770952D01*
X180435238Y-107151904D01*
X180482857Y-107247142D01*
X180530476Y-107294761D01*
X180625714Y-107342380D01*
X180816190Y-107342380D01*
X180911428Y-107294761D01*
X180959047Y-107247142D01*
X181006666Y-107151904D01*
X181006666Y-106913809D01*
X180959047Y-106818571D01*
X180911428Y-106770952D01*
X180816190Y-106723333D01*
X180625714Y-106723333D01*
X180530476Y-106770952D01*
X180482857Y-106818571D01*
X180435238Y-106913809D01*
%TO.C,J7*%
X159686666Y-80942380D02*
X159686666Y-81656666D01*
X159639047Y-81799523D01*
X159543809Y-81894761D01*
X159400952Y-81942380D01*
X159305714Y-81942380D01*
X160067619Y-80942380D02*
X160734285Y-80942380D01*
X160305714Y-81942380D01*
%TO.C,J8*%
X167306666Y-93222380D02*
X167306666Y-93936666D01*
X167259047Y-94079523D01*
X167163809Y-94174761D01*
X167020952Y-94222380D01*
X166925714Y-94222380D01*
X167925714Y-93650952D02*
X167830476Y-93603333D01*
X167782857Y-93555714D01*
X167735238Y-93460476D01*
X167735238Y-93412857D01*
X167782857Y-93317619D01*
X167830476Y-93270000D01*
X167925714Y-93222380D01*
X168116190Y-93222380D01*
X168211428Y-93270000D01*
X168259047Y-93317619D01*
X168306666Y-93412857D01*
X168306666Y-93460476D01*
X168259047Y-93555714D01*
X168211428Y-93603333D01*
X168116190Y-93650952D01*
X167925714Y-93650952D01*
X167830476Y-93698571D01*
X167782857Y-93746190D01*
X167735238Y-93841428D01*
X167735238Y-94031904D01*
X167782857Y-94127142D01*
X167830476Y-94174761D01*
X167925714Y-94222380D01*
X168116190Y-94222380D01*
X168211428Y-94174761D01*
X168259047Y-94127142D01*
X168306666Y-94031904D01*
X168306666Y-93841428D01*
X168259047Y-93746190D01*
X168211428Y-93698571D01*
X168116190Y-93650952D01*
%TO.C,J9*%
X180006666Y-93222380D02*
X180006666Y-93936666D01*
X179959047Y-94079523D01*
X179863809Y-94174761D01*
X179720952Y-94222380D01*
X179625714Y-94222380D01*
X180530476Y-94222380D02*
X180720952Y-94222380D01*
X180816190Y-94174761D01*
X180863809Y-94127142D01*
X180959047Y-93984285D01*
X181006666Y-93793809D01*
X181006666Y-93412857D01*
X180959047Y-93317619D01*
X180911428Y-93270000D01*
X180816190Y-93222380D01*
X180625714Y-93222380D01*
X180530476Y-93270000D01*
X180482857Y-93317619D01*
X180435238Y-93412857D01*
X180435238Y-93650952D01*
X180482857Y-93746190D01*
X180530476Y-93793809D01*
X180625714Y-93841428D01*
X180816190Y-93841428D01*
X180911428Y-93793809D01*
X180959047Y-93746190D01*
X181006666Y-93650952D01*
%TO.C,J10*%
X173180476Y-93222380D02*
X173180476Y-93936666D01*
X173132857Y-94079523D01*
X173037619Y-94174761D01*
X172894761Y-94222380D01*
X172799523Y-94222380D01*
X174180476Y-94222380D02*
X173609047Y-94222380D01*
X173894761Y-94222380D02*
X173894761Y-93222380D01*
X173799523Y-93365238D01*
X173704285Y-93460476D01*
X173609047Y-93508095D01*
X174799523Y-93222380D02*
X174894761Y-93222380D01*
X174990000Y-93270000D01*
X175037619Y-93317619D01*
X175085238Y-93412857D01*
X175132857Y-93603333D01*
X175132857Y-93841428D01*
X175085238Y-94031904D01*
X175037619Y-94127142D01*
X174990000Y-94174761D01*
X174894761Y-94222380D01*
X174799523Y-94222380D01*
X174704285Y-94174761D01*
X174656666Y-94127142D01*
X174609047Y-94031904D01*
X174561428Y-93841428D01*
X174561428Y-93603333D01*
X174609047Y-93412857D01*
X174656666Y-93317619D01*
X174704285Y-93270000D01*
X174799523Y-93222380D01*
%TO.C,R1*%
X114582380Y-96686666D02*
X114106190Y-97020000D01*
X114582380Y-97258095D02*
X113582380Y-97258095D01*
X113582380Y-96877142D01*
X113630000Y-96781904D01*
X113677619Y-96734285D01*
X113772857Y-96686666D01*
X113915714Y-96686666D01*
X114010952Y-96734285D01*
X114058571Y-96781904D01*
X114106190Y-96877142D01*
X114106190Y-97258095D01*
X114582380Y-95734285D02*
X114582380Y-96305714D01*
X114582380Y-96020000D02*
X113582380Y-96020000D01*
X113725238Y-96115238D01*
X113820476Y-96210476D01*
X113868095Y-96305714D01*
%TO.C,R2*%
X110772380Y-99226666D02*
X110296190Y-99560000D01*
X110772380Y-99798095D02*
X109772380Y-99798095D01*
X109772380Y-99417142D01*
X109820000Y-99321904D01*
X109867619Y-99274285D01*
X109962857Y-99226666D01*
X110105714Y-99226666D01*
X110200952Y-99274285D01*
X110248571Y-99321904D01*
X110296190Y-99417142D01*
X110296190Y-99798095D01*
X109867619Y-98845714D02*
X109820000Y-98798095D01*
X109772380Y-98702857D01*
X109772380Y-98464761D01*
X109820000Y-98369523D01*
X109867619Y-98321904D01*
X109962857Y-98274285D01*
X110058095Y-98274285D01*
X110200952Y-98321904D01*
X110772380Y-98893333D01*
X110772380Y-98274285D01*
%TO.C,R4*%
X134902380Y-113196666D02*
X134426190Y-113530000D01*
X134902380Y-113768095D02*
X133902380Y-113768095D01*
X133902380Y-113387142D01*
X133950000Y-113291904D01*
X133997619Y-113244285D01*
X134092857Y-113196666D01*
X134235714Y-113196666D01*
X134330952Y-113244285D01*
X134378571Y-113291904D01*
X134426190Y-113387142D01*
X134426190Y-113768095D01*
X134235714Y-112339523D02*
X134902380Y-112339523D01*
X133854761Y-112577619D02*
X134569047Y-112815714D01*
X134569047Y-112196666D01*
%TO.C,R5*%
X142522380Y-113196666D02*
X142046190Y-113530000D01*
X142522380Y-113768095D02*
X141522380Y-113768095D01*
X141522380Y-113387142D01*
X141570000Y-113291904D01*
X141617619Y-113244285D01*
X141712857Y-113196666D01*
X141855714Y-113196666D01*
X141950952Y-113244285D01*
X141998571Y-113291904D01*
X142046190Y-113387142D01*
X142046190Y-113768095D01*
X141522380Y-112291904D02*
X141522380Y-112768095D01*
X141998571Y-112815714D01*
X141950952Y-112768095D01*
X141903333Y-112672857D01*
X141903333Y-112434761D01*
X141950952Y-112339523D01*
X141998571Y-112291904D01*
X142093809Y-112244285D01*
X142331904Y-112244285D01*
X142427142Y-112291904D01*
X142474761Y-112339523D01*
X142522380Y-112434761D01*
X142522380Y-112672857D01*
X142474761Y-112768095D01*
X142427142Y-112815714D01*
%TO.C,R6*%
X138712380Y-113196666D02*
X138236190Y-113530000D01*
X138712380Y-113768095D02*
X137712380Y-113768095D01*
X137712380Y-113387142D01*
X137760000Y-113291904D01*
X137807619Y-113244285D01*
X137902857Y-113196666D01*
X138045714Y-113196666D01*
X138140952Y-113244285D01*
X138188571Y-113291904D01*
X138236190Y-113387142D01*
X138236190Y-113768095D01*
X137712380Y-112339523D02*
X137712380Y-112530000D01*
X137760000Y-112625238D01*
X137807619Y-112672857D01*
X137950476Y-112768095D01*
X138140952Y-112815714D01*
X138521904Y-112815714D01*
X138617142Y-112768095D01*
X138664761Y-112720476D01*
X138712380Y-112625238D01*
X138712380Y-112434761D01*
X138664761Y-112339523D01*
X138617142Y-112291904D01*
X138521904Y-112244285D01*
X138283809Y-112244285D01*
X138188571Y-112291904D01*
X138140952Y-112339523D01*
X138093333Y-112434761D01*
X138093333Y-112625238D01*
X138140952Y-112720476D01*
X138188571Y-112768095D01*
X138283809Y-112815714D01*
%TO.C,R7*%
X146332380Y-113196666D02*
X145856190Y-113530000D01*
X146332380Y-113768095D02*
X145332380Y-113768095D01*
X145332380Y-113387142D01*
X145380000Y-113291904D01*
X145427619Y-113244285D01*
X145522857Y-113196666D01*
X145665714Y-113196666D01*
X145760952Y-113244285D01*
X145808571Y-113291904D01*
X145856190Y-113387142D01*
X145856190Y-113768095D01*
X145332380Y-112863333D02*
X145332380Y-112196666D01*
X146332380Y-112625238D01*
%TO.C,R8*%
X170013333Y-104422380D02*
X169680000Y-103946190D01*
X169441904Y-104422380D02*
X169441904Y-103422380D01*
X169822857Y-103422380D01*
X169918095Y-103470000D01*
X169965714Y-103517619D01*
X170013333Y-103612857D01*
X170013333Y-103755714D01*
X169965714Y-103850952D01*
X169918095Y-103898571D01*
X169822857Y-103946190D01*
X169441904Y-103946190D01*
X170584761Y-103850952D02*
X170489523Y-103803333D01*
X170441904Y-103755714D01*
X170394285Y-103660476D01*
X170394285Y-103612857D01*
X170441904Y-103517619D01*
X170489523Y-103470000D01*
X170584761Y-103422380D01*
X170775238Y-103422380D01*
X170870476Y-103470000D01*
X170918095Y-103517619D01*
X170965714Y-103612857D01*
X170965714Y-103660476D01*
X170918095Y-103755714D01*
X170870476Y-103803333D01*
X170775238Y-103850952D01*
X170584761Y-103850952D01*
X170489523Y-103898571D01*
X170441904Y-103946190D01*
X170394285Y-104041428D01*
X170394285Y-104231904D01*
X170441904Y-104327142D01*
X170489523Y-104374761D01*
X170584761Y-104422380D01*
X170775238Y-104422380D01*
X170870476Y-104374761D01*
X170918095Y-104327142D01*
X170965714Y-104231904D01*
X170965714Y-104041428D01*
X170918095Y-103946190D01*
X170870476Y-103898571D01*
X170775238Y-103850952D01*
%TO.C,R9*%
X170013333Y-114922380D02*
X169680000Y-114446190D01*
X169441904Y-114922380D02*
X169441904Y-113922380D01*
X169822857Y-113922380D01*
X169918095Y-113970000D01*
X169965714Y-114017619D01*
X170013333Y-114112857D01*
X170013333Y-114255714D01*
X169965714Y-114350952D01*
X169918095Y-114398571D01*
X169822857Y-114446190D01*
X169441904Y-114446190D01*
X170489523Y-114922380D02*
X170680000Y-114922380D01*
X170775238Y-114874761D01*
X170822857Y-114827142D01*
X170918095Y-114684285D01*
X170965714Y-114493809D01*
X170965714Y-114112857D01*
X170918095Y-114017619D01*
X170870476Y-113970000D01*
X170775238Y-113922380D01*
X170584761Y-113922380D01*
X170489523Y-113970000D01*
X170441904Y-114017619D01*
X170394285Y-114112857D01*
X170394285Y-114350952D01*
X170441904Y-114446190D01*
X170489523Y-114493809D01*
X170584761Y-114541428D01*
X170775238Y-114541428D01*
X170870476Y-114493809D01*
X170918095Y-114446190D01*
X170965714Y-114350952D01*
%TO.C,U1*%
X137668095Y-104227380D02*
X137668095Y-105036904D01*
X137715714Y-105132142D01*
X137763333Y-105179761D01*
X137858571Y-105227380D01*
X138049047Y-105227380D01*
X138144285Y-105179761D01*
X138191904Y-105132142D01*
X138239523Y-105036904D01*
X138239523Y-104227380D01*
X139239523Y-105227380D02*
X138668095Y-105227380D01*
X138953809Y-105227380D02*
X138953809Y-104227380D01*
X138858571Y-104370238D01*
X138763333Y-104465476D01*
X138668095Y-104513095D01*
X125904761Y-118832380D02*
X126238095Y-119832380D01*
X126571428Y-118832380D01*
X126904761Y-119832380D02*
X126904761Y-118832380D01*
X127380952Y-119832380D02*
X127380952Y-118832380D01*
X127952380Y-119832380D01*
X127952380Y-118832380D01*
X127261904Y-116340000D02*
X127166666Y-116292380D01*
X127023809Y-116292380D01*
X126880952Y-116340000D01*
X126785714Y-116435238D01*
X126738095Y-116530476D01*
X126690476Y-116720952D01*
X126690476Y-116863809D01*
X126738095Y-117054285D01*
X126785714Y-117149523D01*
X126880952Y-117244761D01*
X127023809Y-117292380D01*
X127119047Y-117292380D01*
X127261904Y-117244761D01*
X127309523Y-117197142D01*
X127309523Y-116863809D01*
X127119047Y-116863809D01*
X126452380Y-114752380D02*
X126119047Y-114276190D01*
X125880952Y-114752380D02*
X125880952Y-113752380D01*
X126261904Y-113752380D01*
X126357142Y-113800000D01*
X126404761Y-113847619D01*
X126452380Y-113942857D01*
X126452380Y-114085714D01*
X126404761Y-114180952D01*
X126357142Y-114228571D01*
X126261904Y-114276190D01*
X125880952Y-114276190D01*
X126833333Y-114704761D02*
X126976190Y-114752380D01*
X127214285Y-114752380D01*
X127309523Y-114704761D01*
X127357142Y-114657142D01*
X127404761Y-114561904D01*
X127404761Y-114466666D01*
X127357142Y-114371428D01*
X127309523Y-114323809D01*
X127214285Y-114276190D01*
X127023809Y-114228571D01*
X126928571Y-114180952D01*
X126880952Y-114133333D01*
X126833333Y-114038095D01*
X126833333Y-113942857D01*
X126880952Y-113847619D01*
X126928571Y-113800000D01*
X127023809Y-113752380D01*
X127261904Y-113752380D01*
X127404761Y-113800000D01*
X127690476Y-113752380D02*
X128261904Y-113752380D01*
X127976190Y-114752380D02*
X127976190Y-113752380D01*
X126261904Y-111688571D02*
X126595238Y-111688571D01*
X126738095Y-112212380D02*
X126261904Y-112212380D01*
X126261904Y-111212380D01*
X126738095Y-111212380D01*
X127166666Y-112212380D02*
X127166666Y-111212380D01*
X127738095Y-112212380D01*
X127738095Y-111212380D01*
X126238095Y-108672380D02*
X126857142Y-108672380D01*
X126523809Y-109053333D01*
X126666666Y-109053333D01*
X126761904Y-109100952D01*
X126809523Y-109148571D01*
X126857142Y-109243809D01*
X126857142Y-109481904D01*
X126809523Y-109577142D01*
X126761904Y-109624761D01*
X126666666Y-109672380D01*
X126380952Y-109672380D01*
X126285714Y-109624761D01*
X126238095Y-109577142D01*
X127142857Y-108672380D02*
X127476190Y-109672380D01*
X127809523Y-108672380D01*
X127261904Y-106180000D02*
X127166666Y-106132380D01*
X127023809Y-106132380D01*
X126880952Y-106180000D01*
X126785714Y-106275238D01*
X126738095Y-106370476D01*
X126690476Y-106560952D01*
X126690476Y-106703809D01*
X126738095Y-106894285D01*
X126785714Y-106989523D01*
X126880952Y-107084761D01*
X127023809Y-107132380D01*
X127119047Y-107132380D01*
X127261904Y-107084761D01*
X127309523Y-107037142D01*
X127309523Y-106703809D01*
X127119047Y-106703809D01*
X126214285Y-104544761D02*
X126357142Y-104592380D01*
X126595238Y-104592380D01*
X126690476Y-104544761D01*
X126738095Y-104497142D01*
X126785714Y-104401904D01*
X126785714Y-104306666D01*
X126738095Y-104211428D01*
X126690476Y-104163809D01*
X126595238Y-104116190D01*
X126404761Y-104068571D01*
X126309523Y-104020952D01*
X126261904Y-103973333D01*
X126214285Y-103878095D01*
X126214285Y-103782857D01*
X126261904Y-103687619D01*
X126309523Y-103640000D01*
X126404761Y-103592380D01*
X126642857Y-103592380D01*
X126785714Y-103640000D01*
X127214285Y-104592380D02*
X127214285Y-103592380D01*
X127785714Y-104592380D02*
X127357142Y-104020952D01*
X127785714Y-103592380D02*
X127214285Y-104163809D01*
X126190476Y-102004761D02*
X126333333Y-102052380D01*
X126571428Y-102052380D01*
X126666666Y-102004761D01*
X126714285Y-101957142D01*
X126761904Y-101861904D01*
X126761904Y-101766666D01*
X126714285Y-101671428D01*
X126666666Y-101623809D01*
X126571428Y-101576190D01*
X126380952Y-101528571D01*
X126285714Y-101480952D01*
X126238095Y-101433333D01*
X126190476Y-101338095D01*
X126190476Y-101242857D01*
X126238095Y-101147619D01*
X126285714Y-101100000D01*
X126380952Y-101052380D01*
X126619047Y-101052380D01*
X126761904Y-101100000D01*
X127380952Y-101052380D02*
X127571428Y-101052380D01*
X127666666Y-101100000D01*
X127761904Y-101195238D01*
X127809523Y-101385714D01*
X127809523Y-101719047D01*
X127761904Y-101909523D01*
X127666666Y-102004761D01*
X127571428Y-102052380D01*
X127380952Y-102052380D01*
X127285714Y-102004761D01*
X127190476Y-101909523D01*
X127142857Y-101719047D01*
X127142857Y-101385714D01*
X127190476Y-101195238D01*
X127285714Y-101100000D01*
X127380952Y-101052380D01*
X126214285Y-99464761D02*
X126357142Y-99512380D01*
X126595238Y-99512380D01*
X126690476Y-99464761D01*
X126738095Y-99417142D01*
X126785714Y-99321904D01*
X126785714Y-99226666D01*
X126738095Y-99131428D01*
X126690476Y-99083809D01*
X126595238Y-99036190D01*
X126404761Y-98988571D01*
X126309523Y-98940952D01*
X126261904Y-98893333D01*
X126214285Y-98798095D01*
X126214285Y-98702857D01*
X126261904Y-98607619D01*
X126309523Y-98560000D01*
X126404761Y-98512380D01*
X126642857Y-98512380D01*
X126785714Y-98560000D01*
X127785714Y-99417142D02*
X127738095Y-99464761D01*
X127595238Y-99512380D01*
X127500000Y-99512380D01*
X127357142Y-99464761D01*
X127261904Y-99369523D01*
X127214285Y-99274285D01*
X127166666Y-99083809D01*
X127166666Y-98940952D01*
X127214285Y-98750476D01*
X127261904Y-98655238D01*
X127357142Y-98560000D01*
X127500000Y-98512380D01*
X127595238Y-98512380D01*
X127738095Y-98560000D01*
X127785714Y-98607619D01*
X126238095Y-96924761D02*
X126380952Y-96972380D01*
X126619047Y-96972380D01*
X126714285Y-96924761D01*
X126761904Y-96877142D01*
X126809523Y-96781904D01*
X126809523Y-96686666D01*
X126761904Y-96591428D01*
X126714285Y-96543809D01*
X126619047Y-96496190D01*
X126428571Y-96448571D01*
X126333333Y-96400952D01*
X126285714Y-96353333D01*
X126238095Y-96258095D01*
X126238095Y-96162857D01*
X126285714Y-96067619D01*
X126333333Y-96020000D01*
X126428571Y-95972380D01*
X126666666Y-95972380D01*
X126809523Y-96020000D01*
X127761904Y-96972380D02*
X127190476Y-96972380D01*
X127476190Y-96972380D02*
X127476190Y-95972380D01*
X127380952Y-96115238D01*
X127285714Y-96210476D01*
X127190476Y-96258095D01*
X126238095Y-94384761D02*
X126380952Y-94432380D01*
X126619047Y-94432380D01*
X126714285Y-94384761D01*
X126761904Y-94337142D01*
X126809523Y-94241904D01*
X126809523Y-94146666D01*
X126761904Y-94051428D01*
X126714285Y-94003809D01*
X126619047Y-93956190D01*
X126428571Y-93908571D01*
X126333333Y-93860952D01*
X126285714Y-93813333D01*
X126238095Y-93718095D01*
X126238095Y-93622857D01*
X126285714Y-93527619D01*
X126333333Y-93480000D01*
X126428571Y-93432380D01*
X126666666Y-93432380D01*
X126809523Y-93480000D01*
X127190476Y-93527619D02*
X127238095Y-93480000D01*
X127333333Y-93432380D01*
X127571428Y-93432380D01*
X127666666Y-93480000D01*
X127714285Y-93527619D01*
X127761904Y-93622857D01*
X127761904Y-93718095D01*
X127714285Y-93860952D01*
X127142857Y-94432380D01*
X127761904Y-94432380D01*
X126238095Y-91844761D02*
X126380952Y-91892380D01*
X126619047Y-91892380D01*
X126714285Y-91844761D01*
X126761904Y-91797142D01*
X126809523Y-91701904D01*
X126809523Y-91606666D01*
X126761904Y-91511428D01*
X126714285Y-91463809D01*
X126619047Y-91416190D01*
X126428571Y-91368571D01*
X126333333Y-91320952D01*
X126285714Y-91273333D01*
X126238095Y-91178095D01*
X126238095Y-91082857D01*
X126285714Y-90987619D01*
X126333333Y-90940000D01*
X126428571Y-90892380D01*
X126666666Y-90892380D01*
X126809523Y-90940000D01*
X127142857Y-90892380D02*
X127761904Y-90892380D01*
X127428571Y-91273333D01*
X127571428Y-91273333D01*
X127666666Y-91320952D01*
X127714285Y-91368571D01*
X127761904Y-91463809D01*
X127761904Y-91701904D01*
X127714285Y-91797142D01*
X127666666Y-91844761D01*
X127571428Y-91892380D01*
X127285714Y-91892380D01*
X127190476Y-91844761D01*
X127142857Y-91797142D01*
X126142857Y-88352380D02*
X126476190Y-89352380D01*
X126809523Y-88352380D01*
X127142857Y-88352380D02*
X127142857Y-89161904D01*
X127190476Y-89257142D01*
X127238095Y-89304761D01*
X127333333Y-89352380D01*
X127523809Y-89352380D01*
X127619047Y-89304761D01*
X127666666Y-89257142D01*
X127714285Y-89161904D01*
X127714285Y-88352380D01*
X127261904Y-85860000D02*
X127166666Y-85812380D01*
X127023809Y-85812380D01*
X126880952Y-85860000D01*
X126785714Y-85955238D01*
X126738095Y-86050476D01*
X126690476Y-86240952D01*
X126690476Y-86383809D01*
X126738095Y-86574285D01*
X126785714Y-86669523D01*
X126880952Y-86764761D01*
X127023809Y-86812380D01*
X127119047Y-86812380D01*
X127261904Y-86764761D01*
X127309523Y-86717142D01*
X127309523Y-86383809D01*
X127119047Y-86383809D01*
X126285714Y-83986666D02*
X126761904Y-83986666D01*
X126190476Y-84272380D02*
X126523809Y-83272380D01*
X126857142Y-84272380D01*
X127380952Y-83272380D02*
X127476190Y-83272380D01*
X127571428Y-83320000D01*
X127619047Y-83367619D01*
X127666666Y-83462857D01*
X127714285Y-83653333D01*
X127714285Y-83891428D01*
X127666666Y-84081904D01*
X127619047Y-84177142D01*
X127571428Y-84224761D01*
X127476190Y-84272380D01*
X127380952Y-84272380D01*
X127285714Y-84224761D01*
X127238095Y-84177142D01*
X127190476Y-84081904D01*
X127142857Y-83891428D01*
X127142857Y-83653333D01*
X127190476Y-83462857D01*
X127238095Y-83367619D01*
X127285714Y-83320000D01*
X127380952Y-83272380D01*
X149098095Y-118832380D02*
X149717142Y-118832380D01*
X149383809Y-119213333D01*
X149526666Y-119213333D01*
X149621904Y-119260952D01*
X149669523Y-119308571D01*
X149717142Y-119403809D01*
X149717142Y-119641904D01*
X149669523Y-119737142D01*
X149621904Y-119784761D01*
X149526666Y-119832380D01*
X149240952Y-119832380D01*
X149145714Y-119784761D01*
X149098095Y-119737142D01*
X150002857Y-118832380D02*
X150336190Y-119832380D01*
X150669523Y-118832380D01*
X150121904Y-116340000D02*
X150026666Y-116292380D01*
X149883809Y-116292380D01*
X149740952Y-116340000D01*
X149645714Y-116435238D01*
X149598095Y-116530476D01*
X149550476Y-116720952D01*
X149550476Y-116863809D01*
X149598095Y-117054285D01*
X149645714Y-117149523D01*
X149740952Y-117244761D01*
X149883809Y-117292380D01*
X149979047Y-117292380D01*
X150121904Y-117244761D01*
X150169523Y-117197142D01*
X150169523Y-116863809D01*
X149979047Y-116863809D01*
X149098095Y-113752380D02*
X149669523Y-113752380D01*
X149383809Y-114752380D02*
X149383809Y-113752380D01*
X149907619Y-113752380D02*
X150574285Y-114752380D01*
X150574285Y-113752380D02*
X149907619Y-114752380D01*
X149693333Y-112212380D02*
X149360000Y-111736190D01*
X149121904Y-112212380D02*
X149121904Y-111212380D01*
X149502857Y-111212380D01*
X149598095Y-111260000D01*
X149645714Y-111307619D01*
X149693333Y-111402857D01*
X149693333Y-111545714D01*
X149645714Y-111640952D01*
X149598095Y-111688571D01*
X149502857Y-111736190D01*
X149121904Y-111736190D01*
X150026666Y-111212380D02*
X150693333Y-112212380D01*
X150693333Y-111212380D02*
X150026666Y-112212380D01*
X149121904Y-109672380D02*
X149121904Y-108672380D01*
X149360000Y-108672380D01*
X149502857Y-108720000D01*
X149598095Y-108815238D01*
X149645714Y-108910476D01*
X149693333Y-109100952D01*
X149693333Y-109243809D01*
X149645714Y-109434285D01*
X149598095Y-109529523D01*
X149502857Y-109624761D01*
X149360000Y-109672380D01*
X149121904Y-109672380D01*
X150264761Y-109100952D02*
X150169523Y-109053333D01*
X150121904Y-109005714D01*
X150074285Y-108910476D01*
X150074285Y-108862857D01*
X150121904Y-108767619D01*
X150169523Y-108720000D01*
X150264761Y-108672380D01*
X150455238Y-108672380D01*
X150550476Y-108720000D01*
X150598095Y-108767619D01*
X150645714Y-108862857D01*
X150645714Y-108910476D01*
X150598095Y-109005714D01*
X150550476Y-109053333D01*
X150455238Y-109100952D01*
X150264761Y-109100952D01*
X150169523Y-109148571D01*
X150121904Y-109196190D01*
X150074285Y-109291428D01*
X150074285Y-109481904D01*
X150121904Y-109577142D01*
X150169523Y-109624761D01*
X150264761Y-109672380D01*
X150455238Y-109672380D01*
X150550476Y-109624761D01*
X150598095Y-109577142D01*
X150645714Y-109481904D01*
X150645714Y-109291428D01*
X150598095Y-109196190D01*
X150550476Y-109148571D01*
X150455238Y-109100952D01*
X149121904Y-107132380D02*
X149121904Y-106132380D01*
X149360000Y-106132380D01*
X149502857Y-106180000D01*
X149598095Y-106275238D01*
X149645714Y-106370476D01*
X149693333Y-106560952D01*
X149693333Y-106703809D01*
X149645714Y-106894285D01*
X149598095Y-106989523D01*
X149502857Y-107084761D01*
X149360000Y-107132380D01*
X149121904Y-107132380D01*
X150026666Y-106132380D02*
X150693333Y-106132380D01*
X150264761Y-107132380D01*
X149121904Y-104592380D02*
X149121904Y-103592380D01*
X149360000Y-103592380D01*
X149502857Y-103640000D01*
X149598095Y-103735238D01*
X149645714Y-103830476D01*
X149693333Y-104020952D01*
X149693333Y-104163809D01*
X149645714Y-104354285D01*
X149598095Y-104449523D01*
X149502857Y-104544761D01*
X149360000Y-104592380D01*
X149121904Y-104592380D01*
X150550476Y-103592380D02*
X150360000Y-103592380D01*
X150264761Y-103640000D01*
X150217142Y-103687619D01*
X150121904Y-103830476D01*
X150074285Y-104020952D01*
X150074285Y-104401904D01*
X150121904Y-104497142D01*
X150169523Y-104544761D01*
X150264761Y-104592380D01*
X150455238Y-104592380D01*
X150550476Y-104544761D01*
X150598095Y-104497142D01*
X150645714Y-104401904D01*
X150645714Y-104163809D01*
X150598095Y-104068571D01*
X150550476Y-104020952D01*
X150455238Y-103973333D01*
X150264761Y-103973333D01*
X150169523Y-104020952D01*
X150121904Y-104068571D01*
X150074285Y-104163809D01*
X149121904Y-102052380D02*
X149121904Y-101052380D01*
X149360000Y-101052380D01*
X149502857Y-101100000D01*
X149598095Y-101195238D01*
X149645714Y-101290476D01*
X149693333Y-101480952D01*
X149693333Y-101623809D01*
X149645714Y-101814285D01*
X149598095Y-101909523D01*
X149502857Y-102004761D01*
X149360000Y-102052380D01*
X149121904Y-102052380D01*
X150598095Y-101052380D02*
X150121904Y-101052380D01*
X150074285Y-101528571D01*
X150121904Y-101480952D01*
X150217142Y-101433333D01*
X150455238Y-101433333D01*
X150550476Y-101480952D01*
X150598095Y-101528571D01*
X150645714Y-101623809D01*
X150645714Y-101861904D01*
X150598095Y-101957142D01*
X150550476Y-102004761D01*
X150455238Y-102052380D01*
X150217142Y-102052380D01*
X150121904Y-102004761D01*
X150074285Y-101957142D01*
X150121904Y-98560000D02*
X150026666Y-98512380D01*
X149883809Y-98512380D01*
X149740952Y-98560000D01*
X149645714Y-98655238D01*
X149598095Y-98750476D01*
X149550476Y-98940952D01*
X149550476Y-99083809D01*
X149598095Y-99274285D01*
X149645714Y-99369523D01*
X149740952Y-99464761D01*
X149883809Y-99512380D01*
X149979047Y-99512380D01*
X150121904Y-99464761D01*
X150169523Y-99417142D01*
X150169523Y-99083809D01*
X149979047Y-99083809D01*
X149098095Y-95972380D02*
X149717142Y-95972380D01*
X149383809Y-96353333D01*
X149526666Y-96353333D01*
X149621904Y-96400952D01*
X149669523Y-96448571D01*
X149717142Y-96543809D01*
X149717142Y-96781904D01*
X149669523Y-96877142D01*
X149621904Y-96924761D01*
X149526666Y-96972380D01*
X149240952Y-96972380D01*
X149145714Y-96924761D01*
X149098095Y-96877142D01*
X150002857Y-95972380D02*
X150336190Y-96972380D01*
X150669523Y-95972380D01*
X149121904Y-94432380D02*
X149121904Y-93432380D01*
X149360000Y-93432380D01*
X149502857Y-93480000D01*
X149598095Y-93575238D01*
X149645714Y-93670476D01*
X149693333Y-93860952D01*
X149693333Y-94003809D01*
X149645714Y-94194285D01*
X149598095Y-94289523D01*
X149502857Y-94384761D01*
X149360000Y-94432380D01*
X149121904Y-94432380D01*
X150550476Y-93765714D02*
X150550476Y-94432380D01*
X150312380Y-93384761D02*
X150074285Y-94099047D01*
X150693333Y-94099047D01*
X149121904Y-91892380D02*
X149121904Y-90892380D01*
X149360000Y-90892380D01*
X149502857Y-90940000D01*
X149598095Y-91035238D01*
X149645714Y-91130476D01*
X149693333Y-91320952D01*
X149693333Y-91463809D01*
X149645714Y-91654285D01*
X149598095Y-91749523D01*
X149502857Y-91844761D01*
X149360000Y-91892380D01*
X149121904Y-91892380D01*
X150026666Y-90892380D02*
X150645714Y-90892380D01*
X150312380Y-91273333D01*
X150455238Y-91273333D01*
X150550476Y-91320952D01*
X150598095Y-91368571D01*
X150645714Y-91463809D01*
X150645714Y-91701904D01*
X150598095Y-91797142D01*
X150550476Y-91844761D01*
X150455238Y-91892380D01*
X150169523Y-91892380D01*
X150074285Y-91844761D01*
X150026666Y-91797142D01*
X149121904Y-89352380D02*
X149121904Y-88352380D01*
X149360000Y-88352380D01*
X149502857Y-88400000D01*
X149598095Y-88495238D01*
X149645714Y-88590476D01*
X149693333Y-88780952D01*
X149693333Y-88923809D01*
X149645714Y-89114285D01*
X149598095Y-89209523D01*
X149502857Y-89304761D01*
X149360000Y-89352380D01*
X149121904Y-89352380D01*
X150074285Y-88447619D02*
X150121904Y-88400000D01*
X150217142Y-88352380D01*
X150455238Y-88352380D01*
X150550476Y-88400000D01*
X150598095Y-88447619D01*
X150645714Y-88542857D01*
X150645714Y-88638095D01*
X150598095Y-88780952D01*
X150026666Y-89352380D01*
X150645714Y-89352380D01*
X149121904Y-86812380D02*
X149121904Y-85812380D01*
X149360000Y-85812380D01*
X149502857Y-85860000D01*
X149598095Y-85955238D01*
X149645714Y-86050476D01*
X149693333Y-86240952D01*
X149693333Y-86383809D01*
X149645714Y-86574285D01*
X149598095Y-86669523D01*
X149502857Y-86764761D01*
X149360000Y-86812380D01*
X149121904Y-86812380D01*
X150645714Y-86812380D02*
X150074285Y-86812380D01*
X150360000Y-86812380D02*
X150360000Y-85812380D01*
X150264761Y-85955238D01*
X150169523Y-86050476D01*
X150074285Y-86098095D01*
X149121904Y-84272380D02*
X149121904Y-83272380D01*
X149360000Y-83272380D01*
X149502857Y-83320000D01*
X149598095Y-83415238D01*
X149645714Y-83510476D01*
X149693333Y-83700952D01*
X149693333Y-83843809D01*
X149645714Y-84034285D01*
X149598095Y-84129523D01*
X149502857Y-84224761D01*
X149360000Y-84272380D01*
X149121904Y-84272380D01*
X150312380Y-83272380D02*
X150407619Y-83272380D01*
X150502857Y-83320000D01*
X150550476Y-83367619D01*
X150598095Y-83462857D01*
X150645714Y-83653333D01*
X150645714Y-83891428D01*
X150598095Y-84081904D01*
X150550476Y-84177142D01*
X150502857Y-84224761D01*
X150407619Y-84272380D01*
X150312380Y-84272380D01*
X150217142Y-84224761D01*
X150169523Y-84177142D01*
X150121904Y-84081904D01*
X150074285Y-83891428D01*
X150074285Y-83653333D01*
X150121904Y-83462857D01*
X150169523Y-83367619D01*
X150217142Y-83320000D01*
X150312380Y-83272380D01*
%TO.C,U2*%
X156718095Y-65992380D02*
X156718095Y-66801904D01*
X156765714Y-66897142D01*
X156813333Y-66944761D01*
X156908571Y-66992380D01*
X157099047Y-66992380D01*
X157194285Y-66944761D01*
X157241904Y-66897142D01*
X157289523Y-66801904D01*
X157289523Y-65992380D01*
X157718095Y-66087619D02*
X157765714Y-66040000D01*
X157860952Y-65992380D01*
X158099047Y-65992380D01*
X158194285Y-66040000D01*
X158241904Y-66087619D01*
X158289523Y-66182857D01*
X158289523Y-66278095D01*
X158241904Y-66420952D01*
X157670476Y-66992380D01*
X158289523Y-66992380D01*
%TO.C,U3*%
X176942380Y-122951904D02*
X177751904Y-122951904D01*
X177847142Y-122904285D01*
X177894761Y-122856666D01*
X177942380Y-122761428D01*
X177942380Y-122570952D01*
X177894761Y-122475714D01*
X177847142Y-122428095D01*
X177751904Y-122380476D01*
X176942380Y-122380476D01*
X176942380Y-121999523D02*
X176942380Y-121380476D01*
X177323333Y-121713809D01*
X177323333Y-121570952D01*
X177370952Y-121475714D01*
X177418571Y-121428095D01*
X177513809Y-121380476D01*
X177751904Y-121380476D01*
X177847142Y-121428095D01*
X177894761Y-121475714D01*
X177942380Y-121570952D01*
X177942380Y-121856666D01*
X177894761Y-121951904D01*
X177847142Y-121999523D01*
%TO.C,J2*%
X98726666Y-108247380D02*
X98726666Y-108961666D01*
X98679047Y-109104523D01*
X98583809Y-109199761D01*
X98440952Y-109247380D01*
X98345714Y-109247380D01*
X99155238Y-108342619D02*
X99202857Y-108295000D01*
X99298095Y-108247380D01*
X99536190Y-108247380D01*
X99631428Y-108295000D01*
X99679047Y-108342619D01*
X99726666Y-108437857D01*
X99726666Y-108533095D01*
X99679047Y-108675952D01*
X99107619Y-109247380D01*
X99726666Y-109247380D01*
%TO.C,RV1*%
X95852380Y-80605238D02*
X95376190Y-80938571D01*
X95852380Y-81176666D02*
X94852380Y-81176666D01*
X94852380Y-80795714D01*
X94900000Y-80700476D01*
X94947619Y-80652857D01*
X95042857Y-80605238D01*
X95185714Y-80605238D01*
X95280952Y-80652857D01*
X95328571Y-80700476D01*
X95376190Y-80795714D01*
X95376190Y-81176666D01*
X94852380Y-80319523D02*
X95852380Y-79986190D01*
X94852380Y-79652857D01*
X95852380Y-78795714D02*
X95852380Y-79367142D01*
X95852380Y-79081428D02*
X94852380Y-79081428D01*
X94995238Y-79176666D01*
X95090476Y-79271904D01*
X95138095Y-79367142D01*
%TO.C,U4*%
X106103095Y-52137380D02*
X106103095Y-52946904D01*
X106150714Y-53042142D01*
X106198333Y-53089761D01*
X106293571Y-53137380D01*
X106484047Y-53137380D01*
X106579285Y-53089761D01*
X106626904Y-53042142D01*
X106674523Y-52946904D01*
X106674523Y-52137380D01*
X107579285Y-52470714D02*
X107579285Y-53137380D01*
X107341190Y-52089761D02*
X107103095Y-52804047D01*
X107722142Y-52804047D01*
%TO.C,JP1*%
X123702380Y-55443333D02*
X124416666Y-55443333D01*
X124559523Y-55490952D01*
X124654761Y-55586190D01*
X124702380Y-55729047D01*
X124702380Y-55824285D01*
X124702380Y-54967142D02*
X123702380Y-54967142D01*
X123702380Y-54586190D01*
X123750000Y-54490952D01*
X123797619Y-54443333D01*
X123892857Y-54395714D01*
X124035714Y-54395714D01*
X124130952Y-54443333D01*
X124178571Y-54490952D01*
X124226190Y-54586190D01*
X124226190Y-54967142D01*
X124702380Y-53443333D02*
X124702380Y-54014761D01*
X124702380Y-53729047D02*
X123702380Y-53729047D01*
X123845238Y-53824285D01*
X123940476Y-53919523D01*
X123988095Y-54014761D01*
%TO.C,JP2*%
X116006666Y-70782380D02*
X116006666Y-71496666D01*
X115959047Y-71639523D01*
X115863809Y-71734761D01*
X115720952Y-71782380D01*
X115625714Y-71782380D01*
X116482857Y-71782380D02*
X116482857Y-70782380D01*
X116863809Y-70782380D01*
X116959047Y-70830000D01*
X117006666Y-70877619D01*
X117054285Y-70972857D01*
X117054285Y-71115714D01*
X117006666Y-71210952D01*
X116959047Y-71258571D01*
X116863809Y-71306190D01*
X116482857Y-71306190D01*
X117435238Y-70877619D02*
X117482857Y-70830000D01*
X117578095Y-70782380D01*
X117816190Y-70782380D01*
X117911428Y-70830000D01*
X117959047Y-70877619D01*
X118006666Y-70972857D01*
X118006666Y-71068095D01*
X117959047Y-71210952D01*
X117387619Y-71782380D01*
X118006666Y-71782380D01*
%TO.C,Q1*%
X177327619Y-101695238D02*
X177280000Y-101790476D01*
X177184761Y-101885714D01*
X177041904Y-102028571D01*
X176994285Y-102123809D01*
X176994285Y-102219047D01*
X177232380Y-102171428D02*
X177184761Y-102266666D01*
X177089523Y-102361904D01*
X176899047Y-102409523D01*
X176565714Y-102409523D01*
X176375238Y-102361904D01*
X176280000Y-102266666D01*
X176232380Y-102171428D01*
X176232380Y-101980952D01*
X176280000Y-101885714D01*
X176375238Y-101790476D01*
X176565714Y-101742857D01*
X176899047Y-101742857D01*
X177089523Y-101790476D01*
X177184761Y-101885714D01*
X177232380Y-101980952D01*
X177232380Y-102171428D01*
X177232380Y-100790476D02*
X177232380Y-101361904D01*
X177232380Y-101076190D02*
X176232380Y-101076190D01*
X176375238Y-101171428D01*
X176470476Y-101266666D01*
X176518095Y-101361904D01*
%TD*%
%LPC*%
D12*
%TO.C,REF\u002A\u002A*%
X180340000Y-119380000D03*
%TD*%
D13*
%TO.C,C5*%
X175180000Y-111760000D03*
X170180000Y-111760000D03*
%TD*%
D12*
%TO.C,REF\u002A\u002A*%
X107950000Y-87630000D03*
%TD*%
%TO.C,REF\u002A\u002A*%
X128270000Y-68580000D03*
%TD*%
%TO.C,REF\u002A\u002A*%
X130175000Y-91440000D03*
%TD*%
D14*
%TO.C,D1*%
X175260000Y-106680000D03*
D15*
X165100000Y-106680000D03*
%TD*%
D12*
%TO.C,REF\u002A\u002A*%
X113665000Y-109220000D03*
%TD*%
%TO.C,REF\u002A\u002A*%
X113665000Y-104775000D03*
%TD*%
D16*
%TO.C,REF\u002A\u002A*%
X180340000Y-127635000D03*
%TD*%
%TO.C,REF\u002A\u002A*%
X97790000Y-127635000D03*
%TD*%
%TO.C,REF\u002A\u002A*%
X97790000Y-54610000D03*
%TD*%
%TO.C,REF\u002A\u002A*%
X180340000Y-54610000D03*
%TD*%
D12*
%TO.C,REF\u002A\u002A*%
X173990000Y-76200000D03*
%TD*%
%TO.C,REF\u002A\u002A*%
X160020000Y-80010000D03*
%TD*%
%TO.C,REF\u002A\u002A*%
X137160000Y-78105000D03*
%TD*%
%TO.C,REF\u002A\u002A*%
X128270000Y-76200000D03*
%TD*%
%TO.C,REF\u002A\u002A*%
X139700000Y-76200000D03*
%TD*%
%TO.C,REF\u002A\u002A*%
X100965000Y-96520000D03*
%TD*%
%TO.C,REF\u002A\u002A*%
X149225000Y-119380000D03*
%TD*%
%TO.C,REF\u002A\u002A*%
X127635000Y-111760000D03*
%TD*%
%TO.C,REF\u002A\u002A*%
X139700000Y-99060000D03*
%TD*%
%TO.C,REF\u002A\u002A*%
X146050000Y-99060000D03*
%TD*%
%TO.C,REF\u002A\u002A*%
X149225000Y-96520000D03*
%TD*%
%TO.C,REF\u002A\u002A*%
X163195000Y-99060000D03*
%TD*%
%TO.C,REF\u002A\u002A*%
X177165000Y-91440000D03*
%TD*%
%TO.C,REF\u002A\u002A*%
X171450000Y-99060000D03*
%TD*%
D17*
%TO.C,R3*%
X104140000Y-106680000D03*
D13*
X104140000Y-96520000D03*
%TD*%
%TO.C,C1*%
X109220000Y-111680000D03*
X109220000Y-106680000D03*
%TD*%
%TO.C,C2*%
X111760000Y-82550000D03*
X111760000Y-87550000D03*
%TD*%
%TO.C,C3*%
X137160000Y-63500000D03*
X137160000Y-68500000D03*
%TD*%
%TO.C,C4*%
X173990000Y-128270000D03*
X168990000Y-128270000D03*
%TD*%
D18*
%TO.C,J1*%
X97790000Y-91440000D03*
X97790000Y-93980000D03*
X97790000Y-96520000D03*
D19*
X97790000Y-99060000D03*
%TD*%
%TO.C,J3*%
X116840000Y-83820000D03*
D18*
X116840000Y-86360000D03*
X116840000Y-88900000D03*
X116840000Y-91440000D03*
X116840000Y-93980000D03*
X116840000Y-96520000D03*
X116840000Y-99060000D03*
X116840000Y-101600000D03*
X116840000Y-104140000D03*
X116840000Y-106680000D03*
X116840000Y-109220000D03*
X116840000Y-111760000D03*
X116840000Y-114300000D03*
X116840000Y-116840000D03*
X116840000Y-119380000D03*
%TD*%
%TO.C,J4*%
X133350000Y-54610000D03*
D19*
X133350000Y-57150000D03*
%TD*%
%TO.C,J5*%
X179705000Y-62230000D03*
D18*
X179705000Y-64770000D03*
%TD*%
D19*
%TO.C,J6*%
X180340000Y-109220000D03*
D18*
X180340000Y-111760000D03*
%TD*%
%TO.C,J7*%
X160020000Y-119380000D03*
X160020000Y-116840000D03*
X160020000Y-114300000D03*
X160020000Y-111760000D03*
X160020000Y-109220000D03*
X160020000Y-106680000D03*
X160020000Y-104140000D03*
X160020000Y-101600000D03*
X160020000Y-99060000D03*
X160020000Y-96520000D03*
X160020000Y-93980000D03*
X160020000Y-91440000D03*
X160020000Y-88900000D03*
X160020000Y-86360000D03*
D19*
X160020000Y-83820000D03*
%TD*%
%TO.C,J8*%
X167640000Y-91440000D03*
D18*
X167640000Y-88900000D03*
X167640000Y-86360000D03*
X167640000Y-83820000D03*
%TD*%
%TO.C,J9*%
X180340000Y-83820000D03*
X180340000Y-86360000D03*
X180340000Y-88900000D03*
D19*
X180340000Y-91440000D03*
%TD*%
%TO.C,J10*%
X173990000Y-91440000D03*
D18*
X173990000Y-88900000D03*
X173990000Y-86360000D03*
X173990000Y-83820000D03*
%TD*%
D17*
%TO.C,R1*%
X111760000Y-101600000D03*
D13*
X111760000Y-91440000D03*
%TD*%
%TO.C,R2*%
X107950000Y-93980000D03*
D17*
X107950000Y-104140000D03*
%TD*%
D13*
%TO.C,R4*%
X132080000Y-107950000D03*
D17*
X132080000Y-118110000D03*
%TD*%
D13*
%TO.C,R5*%
X139700000Y-107950000D03*
D17*
X139700000Y-118110000D03*
%TD*%
%TO.C,R6*%
X135890000Y-118110000D03*
D13*
X135890000Y-107950000D03*
%TD*%
%TO.C,R7*%
X143510000Y-107950000D03*
D17*
X143510000Y-118110000D03*
%TD*%
D13*
%TO.C,R8*%
X175260000Y-101600000D03*
D17*
X165100000Y-101600000D03*
%TD*%
%TO.C,R9*%
X175260000Y-116840000D03*
D13*
X165100000Y-116840000D03*
%TD*%
D20*
%TO.C,U1*%
X124460000Y-83820000D03*
X124460000Y-86360000D03*
X124460000Y-88900000D03*
X124460000Y-91440000D03*
X124460000Y-93980000D03*
X124460000Y-96520000D03*
X124460000Y-99060000D03*
X124460000Y-101600000D03*
X124460000Y-104140000D03*
X124460000Y-106680000D03*
X124460000Y-109220000D03*
X124460000Y-111760000D03*
X124460000Y-114300000D03*
X124460000Y-116840000D03*
X124460000Y-119380000D03*
X152400000Y-119380000D03*
X152400000Y-116840000D03*
X152400000Y-114300000D03*
X152400000Y-111760000D03*
X152400000Y-109220000D03*
X152400000Y-106680000D03*
X152400000Y-104140000D03*
X152400000Y-101600000D03*
X152400000Y-99060000D03*
X152400000Y-96520000D03*
X152400000Y-93980000D03*
X152400000Y-91440000D03*
X152400000Y-88900000D03*
X152400000Y-86360000D03*
X152400000Y-83820000D03*
%TD*%
%TO.C,U2*%
X142710000Y-58420000D03*
X142710000Y-60960000D03*
X142710000Y-63500000D03*
X142710000Y-66040000D03*
X172250000Y-66040000D03*
X172250000Y-63500000D03*
X172250000Y-60960000D03*
X172250000Y-58420000D03*
X172250000Y-55880000D03*
%TD*%
D21*
%TO.C,U3*%
X173990000Y-123190000D03*
D13*
X171450000Y-123190000D03*
X168910000Y-123190000D03*
X166370000Y-123190000D03*
%TD*%
D19*
%TO.C,J2*%
X97790000Y-111125000D03*
D18*
X100330000Y-111125000D03*
X97790000Y-113665000D03*
X100330000Y-113665000D03*
X97790000Y-116205000D03*
X100330000Y-116205000D03*
X97790000Y-118745000D03*
X100330000Y-118745000D03*
X97790000Y-121285000D03*
X100330000Y-121285000D03*
%TD*%
D13*
%TO.C,RV1*%
X99060000Y-77470000D03*
X99060000Y-80010000D03*
X99060000Y-82550000D03*
%TD*%
D22*
%TO.C,U4*%
X102115000Y-63685000D03*
X111615000Y-63685000D03*
D23*
X103505000Y-60325000D03*
D22*
X103505000Y-67045000D03*
X110225000Y-67045000D03*
X110225000Y-60325000D03*
%TD*%
D18*
%TO.C,JP1*%
X119380000Y-54610000D03*
D19*
X121920000Y-54610000D03*
%TD*%
%TO.C,JP2*%
X116840000Y-73660000D03*
D18*
X116840000Y-76200000D03*
%TD*%
D24*
%TO.C,Q1*%
X180340000Y-101600000D03*
X180340000Y-100330000D03*
D25*
X180340000Y-102870000D03*
%TD*%
M02*
